Division,WeightClassKg,Place,Name,Team,BodyweightKg,Best3SquatKg,Best3BenchKg,Best3DeadliftKg,TotalKg,Equipment,Event,Sex
Boys,51.71,1,Chandler Prnka,Malakoff,51.26,158.76,79.38,170.1,408.23,Single-ply,SBD,M
Boys,51.71,2,Dayce Drennan,Winnsboro,51.53,170.1,79.38,158.76,408.23,Single-ply,SBD,M
Boys,51.71,3,Chandler Bush,Elysian Fields,50.53,149.69,79.38,149.69,378.75,Single-ply,SBD,M
Boys,51.71,4,Johnny Garza,Pattonville Prairiland,50.71,117.93,74.84,158.76,351.53,Single-ply,SBD,M
Boys,51.71,5,Jesus Leon,Wolfe City,51.62,145.15,70.31,136.08,351.53,Single-ply,SBD,M
Boys,51.71,6,Chance Paschal,Blooming Grove,50.8,136.08,72.57,136.08,344.73,Single-ply,SBD,M
Boys,51.71,7,Sebastian Urteaga,Eustace,49.71,129.27,61.23,124.74,315.25,Single-ply,SBD,M
Boys,51.71,8,Jace Lindsay,Beckville,50.98,108.86,72.57,129.27,310.71,Single-ply,SBD,M
Boys,51.71,9,Jesse Ribble,Daingerfield,47.72,129.27,52.16,120.2,301.64,Single-ply,SBD,M
Boys,51.71,10,Roman Colsten,Commerce,51.71,113.4,56.7,117.93,288.03,Single-ply,SBD,M
Boys,51.71,11,Heath Schlottman,Mount Vernon,48.99,104.33,61.23,108.86,274.42,Single-ply,SBD,M
Boys,51.71,DQ,Aaron Butler,Celeste,50.71,,,,,Single-ply,SBD,M
Boys,55.79,1,BJ Stidham,Gladewater Sabine,55.25,195.04,111.13,210.92,517.1,Single-ply,SBD,M
Boys,55.79,2,Aeneas Page,Palestine Westwood,54.25,176.9,81.65,172.37,430.91,Single-ply,SBD,M
Boys,55.79,3,Chris Counts,Lone Oak,54.52,167.83,79.38,165.56,412.77,Single-ply,SBD,M
Boys,55.79,4,Hunter Dudley,Normangee,55.79,151.95,92.99,147.42,392.36,Single-ply,SBD,M
Boys,55.79,5,Kasen Haynes,Lone Oak,54.79,167.83,88.45,129.27,385.55,Single-ply,SBD,M
Boys,55.79,6,Elijah Webster,Queen City,55.61,136.08,79.38,154.22,369.68,Single-ply,SBD,M
Boys,55.79,7,Kadin Daniels,Maud,55.52,129.27,79.38,151.95,360.61,Single-ply,SBD,M
Boys,55.79,8,Kile Stripland,Gladewater Sabine,55.79,131.54,90.72,131.54,353.8,Single-ply,SBD,M
Boys,55.79,9,Raul Rodriguez,Diboll,55.16,133.81,70.31,138.35,342.46,Single-ply,SBD,M
Boys,55.79,10,Gavin Rhea,Simms Bowie,55.61,122.47,72.57,138.35,333.39,Single-ply,SBD,M
Boys,55.79,11,Michael Hill,Normangee,55.7,151.95,,,151.95,Single-ply,S,M
Boys,59.87,1,Aundrea Holmes,Trinity,59.42,213.19,106.59,192.78,512.56,Single-ply,SBD,M
Boys,59.87,2,Ben Harris #2,Queen City,59.06,172.37,113.4,181.44,467.2,Single-ply,SBD,M
Boys,59.87,3,Ethan Adair,Lone Oak,58.51,167.83,97.52,165.56,430.91,Single-ply,SBD,M
Boys,59.87,4,Osbaldo Chavez,Gilmer Union Hill,58.97,149.69,99.79,170.1,419.57,Single-ply,SBD,M
Boys,59.87,5,Kole Barrentine,Pattonville Prairiland,59.69,142.88,90.72,179.17,412.77,Single-ply,SBD,M
Boys,59.87,6,Joe Vaelasquez,Blooming Grove,56.43,161.03,86.18,163.29,410.5,Single-ply,SBD,M
Boys,59.87,7,Cannon Churchman,Palestine Westwood,58.97,167.83,90.72,142.88,401.43,Single-ply,SBD,M
Boys,59.87,8,Luis Williams,Harleton,59.6,149.69,83.91,158.76,392.36,Single-ply,SBD,M
Boys,59.87,9,Brandon Renteria,Buffalo,58.42,131.54,83.91,170.1,385.55,Single-ply,SBD,M
Boys,59.87,10,Noble Giles,Frankston,58.88,145.15,,,145.15,Single-ply,S,M
Boys,59.87,DQ,Aldofo Gonzalez,Jewett Leon,59.24,,,,,Single-ply,S,M
Boys,59.87,DQ,Haydon Isbell,Teague,58.88,,,,,Single-ply,S,M
Boys,67.13,1,Gage Dollins,Paris Chisum,64.95,235.87,136.08,224.53,596.47,Single-ply,SBD,M
Boys,67.13,2,Harris Sherrod,Jewett Leon,65.68,224.53,113.4,226.8,564.72,Single-ply,SBD,M
Boys,67.13,3,Jason Jackson #5,De Kalb,66.59,219.99,122.47,201.85,544.31,Single-ply,SBD,M
Boys,67.13,4,Langdon Bautista,Quitman,67.04,204.12,136.08,204.12,544.31,Single-ply,SBD,M
Boys,67.13,5,Trey Goodman,Trinity,67.13,208.65,127.01,208.65,544.31,Single-ply,SBD,M
Boys,67.13,6,Colton Danna,Pattonville Prairiland,67.04,192.78,124.74,195.04,512.56,Single-ply,SBD,M
Boys,67.13,7,Cole Hahn,Lone Oak,64.68,204.12,117.93,185.97,508.02,Single-ply,SBD,M
Boys,67.13,8,Christian Garcia,Emory Rains,66.5,195.04,108.86,188.24,492.15,Single-ply,SBD,M
Boys,67.13,9,Coy Elton,Frankston,65.5,181.44,97.52,204.12,483.08,Single-ply,SBD,M
Boys,67.13,10,Dalton Johnson,Atlanta,64.59,204.12,106.59,167.83,478.54,Single-ply,SBD,M
Boys,67.13,11,Xavier Coleman,Atlanta,66.13,165.56,111.13,183.7,460.4,Single-ply,SBD,M
Boys,67.13,12,JJ Beckfield,Frankston,65.95,174.63,102.06,181.44,458.13,Single-ply,SBD,M
Boys,67.13,DQ,River Chaney,Quitman,65.95,,,,,Single-ply,SBD,M
Boys,74.84,1,Jacob Nash,Atlanta,74.12,249.48,149.69,235.87,635.03,Single-ply,SBD,M
Boys,74.84,2,John Wims,Detroit,73.12,235.87,149.69,215.46,601.01,Single-ply,SBD,M
Boys,74.84,3,Joe McCallum,Lone Oak,74.66,238.14,124.74,213.19,576.06,Single-ply,SBD,M
Boys,74.84,4,Billy Long,Ore City,72.12,213.19,127.01,224.53,564.72,Single-ply,SBD,M
Boys,74.84,5,Bryce Attaway,Troup,72.94,222.26,133.81,190.51,546.58,Single-ply,SBD,M
Boys,74.84,6,Daniel Fernandez,Kerens,73.75,204.12,122.47,183.7,510.29,Single-ply,SBD,M
Boys,74.84,7,Cole Morris,Lone Oak,69.94,213.19,113.4,179.17,505.76,Single-ply,SBD,M
Boys,74.84,8,Victor Ayala,Diboll,72.21,213.19,104.33,183.7,501.22,Single-ply,SBD,M
Boys,74.84,9,Da'Mariyea Hamilton,Dawson,73.57,181.44,106.59,206.38,494.42,Single-ply,SBD,M
Boys,74.84,10,Brendan Alexander,Pollok Central,72.03,190.51,106.59,183.7,480.81,Single-ply,SBD,M
Boys,74.84,DQ,Bryce Jurca,Celeste,74.3,201.85,124.74,,,Single-ply,SBD,M
Boys,82.1,1,Jordan Helms,Redwater,79.56,249.48,154.22,235.87,639.57,Single-ply,SBD,M
Boys,82.1,2,Clayton Mosley,Atlanta,81.1,229.06,154.22,235.87,619.15,Single-ply,SBD,M
Boys,82.1,3,Zane Freeman,Diana New Diana,81.47,215.46,131.54,224.53,571.53,Single-ply,SBD,M
Boys,82.1,4,Brady Jordan,Diboll,80.92,226.8,129.27,199.58,555.65,Single-ply,SBD,M
Boys,82.1,5,Gage Mauch,Lone Oak,80.38,215.46,117.93,201.85,535.24,Single-ply,SBD,M
Boys,82.1,6,Dillion Kizer,De Kalb,80.47,215.46,115.67,199.58,530.7,Single-ply,SBD,M
Boys,82.1,7,Jesus Bravo,Joaquin,81.47,215.46,129.27,183.7,528.44,Single-ply,SBD,M
Boys,82.1,8,Jacob Forsythe,Pollok Central,81.47,208.65,120.2,197.31,526.17,Single-ply,SBD,M
Boys,82.1,9,Koby Phelps,Kerens,81.28,201.85,124.74,195.04,521.63,Single-ply,SBD,M
Boys,82.1,DQ,Alex Marston,Malakoff Cross Roads,81.19,226.8,102.06,,,Single-ply,SBD,M
Boys,82.1,DQ,Hector Dominguez,Buffalo,80.29,,,,,Single-ply,SBD,M
Boys,82.1,DQ,Johnathan Mendez,Kemp,80.83,,,,,Single-ply,SBD,M
Boys,89.81,1,Ryan Lindsay,Elkhart,85.91,299.37,161.03,274.42,734.82,Single-ply,SBD,M
Boys,89.81,2,Patrick Martinez,White Oak,88.72,254.01,149.69,285.76,689.46,Single-ply,SBD,M
Boys,89.81,3,Azaya Patrick,Teague,88.09,240.4,136.08,217.72,594.21,Single-ply,SBD,M
Boys,89.81,4,Cole Seaman,Diboll,87.36,226.8,131.54,222.26,580.6,Single-ply,SBD,M
Boys,89.81,5,Dylan Perkins,New Boston,86,204.12,138.35,233.6,576.06,Single-ply,SBD,M
Boys,89.81,6,John Collier,Redwater,87,240.4,104.33,226.8,571.53,Single-ply,SBD,M
Boys,89.81,7,Walter Beltran,Jewett Leon,85.18,215.46,115.67,219.99,551.11,Single-ply,SBD,M
Boys,89.81,8,Arie Love,De Kalb,85.09,226.8,113.4,208.65,548.85,Single-ply,SBD,M
Boys,89.81,DQ,Kenya Glasco,Blooming Grove,89.27,222.26,,,,Single-ply,SBD,M
Boys,89.81,DQ,Jerry Montgomery,Rice,88.9,,,,,Single-ply,SBD,M
Boys,89.81,DQ,Gelico Green,Teague,89.54,231.33,140.61,,,Single-ply,SBD,M
Boys,99.79,1,Da'Michael Harvey,Kerens,91.17,299.37,147.42,281.23,728.02,Single-ply,SBD,M
Boys,99.79,2,Ty Watts,Simms Bowie,97.61,265.35,158.76,238.14,662.24,Single-ply,SBD,M
Boys,99.79,3,Trey Adams,Atlanta,96.98,263.08,167.83,226.8,657.71,Single-ply,SBD,M
Boys,99.79,4,Carlos Rojas,Redwater,97.43,251.74,124.74,235.87,612.35,Single-ply,SBD,M
Boys,99.79,5,Hayden McLeroy,Diboll,97.52,254.01,129.27,226.8,610.08,Single-ply,SBD,M
Boys,99.79,6,Aaron Hill,New Boston,98.88,215.46,136.08,240.4,591.94,Single-ply,SBD,M
Boys,99.79,7,Juan Perez #1,Frankston,96.98,226.8,117.93,240.4,585.13,Single-ply,SBD,M
Boys,99.79,8,Nathan Slemmons,Lone Oak,92.08,272.16,111.13,195.04,578.33,Single-ply,SBD,M
Boys,99.79,9,Jeremy Peek,Quitman,94.35,213.19,124.74,217.72,555.65,Single-ply,SBD,M
Boys,99.79,DQ,Garrett Harp,Redwater,98.34,,,,,Single-ply,SBD,M
Boys,99.79,DQ,Nakia Lee,Hughes Springs,95.35,185.97,133.81,,,Single-ply,SBD,M
Boys,109.77,1,Saul Diaz,Rice,109.13,272.16,161.03,251.74,684.92,Single-ply,SBD,M
Boys,109.77,2,Cade Fant,Atlanta,101.42,240.4,145.15,249.48,635.03,Single-ply,SBD,M
Boys,109.77,3,Jack Bussey,Scurry-Rosser,107.5,244.94,151.95,238.14,635.03,Single-ply,SBD,M
Boys,109.77,4,Seth Gammage,Lone Oak,106.59,249.48,151.95,229.06,630.49,Single-ply,SBD,M
Boys,109.77,5,Angel Banda,Rice,109.41,249.48,158.76,222.26,630.49,Single-ply,SBD,M
Boys,109.77,6,Ben Lancone,Palmer,107.41,222.26,142.88,240.4,605.55,Single-ply,SBD,M
Boys,109.77,7,Anthony Peak,Commerce,104.87,244.94,138.35,204.12,587.4,Single-ply,SBD,M
Boys,109.77,8,Ian Lail,Mount Pleasant Chapel Hill,107.5,226.8,127.01,229.06,582.87,Single-ply,SBD,M
Boys,109.77,9,Matthew Guevara,Ore City,104.24,226.8,158.76,179.17,564.72,Single-ply,SBD,M
Boys,109.77,DQ,Chance Hicks,Maud,104.6,,,,,Single-ply,SBD,M
Boys,109.77,DQ,Jesse Owen,Frankston,105.05,,,,,Single-ply,SBD,M
Boys,109.77,DQ,Tanner Smith,Celeste,101.88,,,,,Single-ply,SBD,M
Boys,124.74,1,Chris Chamness,Mount Vernon,117.84,317.51,165.56,297.1,780.18,Single-ply,SBD,M
Boys,124.74,2,Korey Grisham,Centerville,120.11,272.16,183.7,260.82,716.68,Single-ply,SBD,M
Boys,124.74,3,Tyrell King,Atlanta,116.66,278.96,174.63,249.48,703.07,Single-ply,SBD,M
Boys,124.74,4,Anthony Cork,Commerce,124.56,267.62,151.95,226.8,646.37,Single-ply,SBD,M
Boys,124.74,5,Luis Garcia #7,Eustace,118.57,276.69,145.15,215.46,637.3,Single-ply,SBD,M
Boys,124.74,6,Zach Gilmore,Daingerfield,116.3,276.69,154.22,204.12,635.03,Single-ply,SBD,M
Boys,124.74,7,Justin Blalock,Quitman,112.85,242.67,142.88,226.8,612.35,Single-ply,SBD,M
Boys,124.74,8,Damon Herrera,Palmer,116.66,222.26,131.54,235.87,589.67,Single-ply,SBD,M
Boys,124.74,9,KeJuan Fite,Mineola,117.75,251.74,124.74,210.92,587.4,Single-ply,SBD,M
Boys,124.74,10,Zamir Ruiz,Malakoff,112.31,233.6,138.35,197.31,569.26,Single-ply,SBD,M
Boys,124.74,11,Asa Henson,Buffalo,121.47,215.46,129.27,215.46,560.19,Single-ply,SBD,M
Boys,124.74,DQ,Seth Eastwood,Maypearl,120.75,,,,,Single-ply,SBD,M
Boys,124.74+,1,Malik Gilliam,Troup,169.19,331.12,170.1,240.4,741.62,Single-ply,SBD,M
Boys,124.74+,2,Lucas Stephenson,Simms Bowie,142.52,317.51,147.42,233.6,698.53,Single-ply,SBD,M
Boys,124.74+,3,Chad Fancher,Eustace,132.99,260.82,172.37,226.8,659.98,Single-ply,SBD,M
Boys,124.74+,4,Tristan Green,Gladewater Sabine,137.62,258.55,172.37,226.8,657.71,Single-ply,SBD,M
Boys,124.74+,5,Weldon Brooks,Elkhart,126.28,258.55,149.69,226.8,635.03,Single-ply,SBD,M
Boys,124.74+,6,Cj Hubbard,Lone Oak,127.1,238.14,199.58,192.78,630.49,Single-ply,SBD,M
Boys,124.74+,7,Lincoln Rogers,Malakoff,126.92,244.94,174.63,208.65,628.23,Single-ply,SBD,M
Boys,124.74+,8,David Williams #9,Omaha Pewitt,149.73,249.48,142.88,235.87,628.23,Single-ply,SBD,M
Boys,124.74+,9,Thomas Harris,Clarksville,135.99,249.48,142.88,217.72,610.08,Single-ply,SBD,M
Boys,124.74+,10,John McCurdy,Winnsboro,128.28,215.46,165.56,215.46,596.47,Single-ply,SBD,M
Boys,124.74+,11,Demarcus Hill,Omaha Pewitt,158.58,233.6,120.2,238.14,591.94,Single-ply,SBD,M
Boys,124.74+,12,Clayton Johnson,Scurry-Rosser,129.91,242.67,136.08,204.12,582.87,Single-ply,SBD,M
Boys,124.74+,13,Joshua Encinio,Dawson,140.61,238.14,138.35,190.51,566.99,Single-ply,SBD,M
Boys,124.74+,DQ,Cody Rutherford,New Boston,136.89,222.26,136.08,,,Single-ply,SBD,M
