Place,Name,BirthYear,Country,BodyweightKg,Squat1Kg,Squat2Kg,Squat3Kg,Best3SquatKg,Bench1Kg,Bench2Kg,Bench3Kg,Best3BenchKg,Deadlift1Kg,Deadlift2Kg,Deadlift3Kg,Best3DeadliftKg,TotalKg,WeightClassKg,Division,Event,Sex,Equipment
1,Dariusz Wszoła,1978,Poland,58.85,190,200,207.5,207.5,140,145,147.5,147.5,185,195,205,205,560,59,Open,SBD,M,Raw
2,Evgeniy Mukhomedyanov,1981,Russia,58.8,175,190,200,200,-120,125,130,130,200,212.5,220,220,550,59,Open,SBD,M,Raw
3,Ilshat Makhmurov,1985,Russia,58.65,160,170,175,175,120,127.5,132.5,132.5,220,227.5,232.5,232.5,540,59,Open,SBD,M,Raw
4,Moris Redini,1990,Italy,57,-177.5,177.5,185,185,122.5,130,132.5,132.5,210,220,-227.5,220,537.5,59,Open,SBD,M,Raw
5,Aleksander Petrov,1990,Bulgaria,54.65,-170,170,185,185,120,127.5,-130,127.5,197.5,210,212.5,212.5,525,59,Open,SBD,M,Raw
6,Sławomir Śledź,1976,Poland,58.1,175,-185,-185,175,130,-135,135,135,190,-200,-200,190,500,59,Open,SBD,M,Raw
1,Eddie Berglund,1995,Sweden,65.75,222.5,232.5,-240,232.5,195,206,213.5,213.5,222.5,230,-242.5,230,676,66,Open,SBD,M,Raw
2,Panagiotis Tarinidis,1994,France,65.8,217.5,227.5,-232.5,227.5,152.5,157.5,160,160,235,245,-252.5,245,632.5,66,Open,SBD,M,Raw
3,Alexander Kolbin,1987,Russia,65.2,220,-225,-225,220,135,140,145,145,245,250,-267.5,250,615,66,Open,SBD,M,Raw
4,Vasyl Mytsa,1989,Ukraine,65.5,205,215,217.5,217.5,122.5,127.5,132.5,132.5,242.5,250,-260,250,600,66,Open,SBD,M,Raw
5,Šarūnas Tolvaiša,1990,Lithuania,64.9,190,197.5,202.5,202.5,130,135,-140,135,-235,242.5,-250,242.5,580,66,Open,SBD,M,Raw
6,Elliot Stone #1,1994,UK,65.6,-190,190,205,205,120,130,135,135,210,225,-242.5,225,565,66,Open,SBD,M,Raw
7,Hung Nguyen Manh,1986,Hungary,65.05,185,192.5,197.5,197.5,125,-132.5,-132.5,125,205,-212.5,212.5,212.5,535,66,Open,SBD,M,Raw
1,Kjell Egil Bakkelund,1988,Norway,72.6,227.5,235,240,240,165,-170,170,170,295,305,,305,715,74,Open,SBD,M,Raw
2,Alexander Eriksson,1994,Sweden,73.85,225,237.5,245,245,165,172.5,177.5,177.5,270,280,-287.5,280,702.5,74,Open,SBD,M,Raw
3,Sergey Negara,1978,Russia,73.4,225,235,240,240,155,-162.5,162.5,162.5,270,290,-300,290,692.5,74,Open,SBD,M,Raw
4,Andrey Kostenko,1988,Russia,73.2,235,245,252.5,252.5,150,155,-157.5,155,262.5,270,-272.5,270,677.5,74,Open,SBD,M,Raw
5,Christopher Wong,1985,UK,71.9,225,235,240,240,130,-140,142.5,142.5,260,277.5,287.5,287.5,670,74,Open,SBD,M,Raw
6,Toni Väisänen,1991,Finland,73.5,225,235,-242.5,235,137.5,145,-150,145,272.5,282.5,-290,282.5,662.5,74,Open,SBD,M,Raw
7,Christian Ayandokun,1991,UK,73.5,215,222.5,230,230,142.5,150,152.5,152.5,262.5,280,-285,280,662.5,74,Open,SBD,M,Raw
8,Jani Haapamäki,1979,Finland,73.5,205,212.5,-220,212.5,162.5,167.5,170,170,-240,240,255,255,637.5,74,Open,SBD,M,Raw
9,Ivo Liepinš,1993,Latvia,71.2,200,205,210,210,115,120,122.5,122.5,270,280,-285,280,612.5,74,Open,SBD,M,Raw
10,Albertas Motiečius,1994,Lithuania,72.3,195,202.5,-207.5,202.5,162.5,167.5,170,170,200,210,215,215,587.5,74,Open,SBD,M,Raw
11,Paulius Pupinis,1994,Lithuania,74,190,-200,200,200,137.5,145,-150,145,220,-240,-245,220,565,74,Open,SBD,M,Raw
DQ,Piotr Jakimiuk,1987,Poland,73.2,-235,-235,-235,,150,-155,-155,150,260,-267.5,-267.5,260,,74,Open,SBD,M,Raw
DQ,Markus Koeberle,1993,Germany,73.7,210,217.5,-222.5,217.5,,,,,,,,,,74,Open,SBD,M,Raw
1,Owen Hubbard,1992,UK,82.7,260,-272.5,272.5,272.5,205,212.5,-218,212.5,265,275,285,285,770,83,Open,SBD,M,Raw
2,Alexey Kuzmin,1982,Russia,82.55,-262.5,262.5,-267.5,262.5,-175,175,-177.5,175,305,312.5,-317.5,312.5,750,83,Open,SBD,M,Raw
3,Erik Karlsson #1,1987,Sweden,82.1,-270,280.5,-286,280.5,137.5,-142.5,142.5,142.5,300,312.5,320,320,743,83,Open,SBD,M,Raw
4,Jacek Spychała,1978,Poland,82.05,255,-265,-265,255,165,175,180,180,290,300,307.5,307.5,742.5,83,Open,SBD,M,Raw
5,Aimar Kuusnõmm,1990,Estonia,82.5,250,260,267.5,267.5,180,185,-187.5,185,275,-280,-280,275,727.5,83,Open,SBD,M,Raw
6,Kiril Valchanov,1986,Bulgaria,81.9,240,255,-262.5,255,-160,160,162.5,162.5,280,290,300,300,717.5,83,Open,SBD,M,Raw
7,Giuseppe Manca,1990,Italy,81.1,247.5,267.5,277.5,277.5,147.5,155,-157.5,155,250,267.5,282.5,282.5,715,83,Open,SBD,M,Raw
8,Jonathan Söderling,1988,Sweden,82.3,255,265,272.5,272.5,142.5,147.5,-150,147.5,295,-310,-310,295,715,83,Open,SBD,M,Raw
9,Yauheni Kautsevich,1988,Belarus,82.7,255,265,-267.5,265,162.5,165,167.5,167.5,282.5,-292.5,-302.5,282.5,715,83,Open,SBD,M,Raw
10,Joey Ma,1993,Netherlands,82.8,250,262.5,267.5,267.5,142.5,150,-155,150,280,297.5,-310,297.5,715,83,Open,SBD,M,Raw
11,Damian Nam,1994,Ireland,82.25,245,260,265,265,147.5,152.5,155,155,277.5,290,-300,290,710,83,Open,SBD,M,Raw
12,Mikko Ronkainen,1987,Finland,82.55,-250,250,-255,250,165,-170,170,170,290,-305,-305,290,710,83,Open,SBD,M,Raw
13,William Clarke,1994,Ireland,81.95,250,262.5,267.5,267.5,160,167.5,-175,167.5,247.5,260,-287.5,260,695,83,Open,SBD,M,Raw
14,Lauris Danilevic,1980,Latvia,82.4,230,240,250,250,145,150,155,155,265,275,282.5,282.5,687.5,83,Open,SBD,M,Raw
15,Stefan Pagelsen,1992,Germany,82.95,217.5,225,-230,225,157.5,162.5,167.5,167.5,265,280,287.5,287.5,680,83,Open,SBD,M,Raw
16,Daniel Iporre Castro,1990,Austria,81.9,205,212.5,217.5,217.5,135,142.5,150,150,220,240,-250,240,607.5,83,Open,SBD,M,Raw
1,Anatolii Novopismennyi,1996,Ukraine,91.85,300,312.5,320,320,185,192.5,197.5,197.5,310,322.5,332.5,332.5,850,93,Open,SBD,M,Raw
2,Borislav Adov,1987,Bulgaria,92.45,270,285,290,290,190,200,205,205,310,322.5,-330,322.5,817.5,93,Open,SBD,M,Raw
3,Vladislav Gerginov,1995,Bulgaria,91.1,290,305,-310,305,195,202.5,-205,202.5,290,-300,302.5,302.5,810,93,Open,SBD,M,Raw
4,Jakub Sedláček,1988,Czechia,90.95,285,300,-307.5,300,207.5,212.5,217.5,217.5,260,282.5,-290,282.5,800,93,Open,SBD,M,Raw
5,Mikalai Haravoi,1990,Belarus,92.75,270,285,-292.5,285,160,170,175,175,305,320,330,330,790,93,Open,SBD,M,Raw
6,André Midtby,1991,Norway,90.55,260,270,-280,270,195,202.5,205,205,290,300,-310,300,775,93,Open,SBD,M,Raw
7,Knut Martin Haraldsen,1994,Norway,91.85,265,277.5,-285,277.5,185,195,-200,195,285,300,-310,300,772.5,93,Open,SBD,M,Raw
8,Hendrick Famutimi,1984,UK,92.1,257.5,267.5,-272.5,267.5,165,170,172.5,172.5,305,317.5,-327.5,317.5,757.5,93,Open,SBD,M,Raw
9,Joakim Jørgensen,1994,Denmark,92.3,247.5,257.5,262.5,262.5,165,170,172.5,172.5,300,315,-325,315,750,93,Open,SBD,M,Raw
10,Fionn Hanratty,1990,Ireland,92.1,247.5,257.5,-262.5,257.5,175,185,-187.5,185,275,285,292.5,292.5,735,93,Open,SBD,M,Raw
11,Rokas Černiauskas,1994,Lithuania,92.45,250,-260,-260,250,180,185,190,190,280,290,-300,290,730,93,Open,SBD,M,Raw
12,Dario Herrsche,1993,Switzerland,92.15,240,252.5,260,260,152.5,160,165,165,245,260,270,270,695,93,Open,SBD,M,Raw
13,Alexander Taschner,1989,Austria,92.2,215,-230,230,230,155,160,167.5,167.5,270,282.5,-292.5,282.5,680,93,Open,SBD,M,Raw
14,Siim Sammalkivi,1987,Estonia,92.35,227.5,235,240,240,157.5,165,167.5,167.5,270,-280,-280,270,677.5,93,Open,SBD,M,Raw
15,Bertrand Saugy,1988,Switzerland,92.25,-195,195,210,210,140,147.5,-150,147.5,235,250,260,260,617.5,93,Open,SBD,M,Raw
1,Krzysztof Wierzbicki,1990,Poland,99.2,285,297.5,305,305,185,192.5,195,195,350,372.5,-390.5,372.5,872.5,105,Open,SBD,M,Raw
2,Ernst Gross,1987,Russia,104.5,300,315,325,325,190,200,202.5,202.5,300,310,-320,310,837.5,105,Open,SBD,M,Raw
3,Barry Pigott,1991,Ireland,101.2,285,295,300,300,215,225,230.5,230.5,295,302.5,-307.5,302.5,833,105,Open,SBD,M,Raw
4,Filip Lindström,1989,Sweden,104.1,277.5,292.5,-300,292.5,185,190,-195,190,310,325,335,335,817.5,105,Open,SBD,M,Raw
5,Marcin Goleń,1983,Poland,104.5,280,290,-295,290,180,190,,190,310,330,-340,330,810,105,Open,SBD,M,Raw
6,Pjotr van den Hoek,1972,Netherlands,104.8,285,-295,-295,285,195,200,-205,200,-300,300,-310,300,785,105,Open,SBD,M,Raw
7,Valentino Durastanti,1992,Italy,103.5,275,290,-300,290,157.5,162.5,-165,162.5,295,312.5,330,330,782.5,105,Open,SBD,M,Raw
8,Kostiantyn Yezyk,1991,Ukraine,104.85,260,270,277.5,277.5,-212.5,212.5,-227,212.5,275,287.5,-300,287.5,777.5,105,Open,SBD,M,Raw
9,Rocco Grillo,1994,Italy,100.7,275,285,292.5,292.5,175,-185,-185,175,280,295,,295,762.5,105,Open,SBD,M,Raw
10,Robert Rees,1988,UK,104.25,252.5,260,265,265,180,187.5,-192.5,187.5,290,310,-315,310,762.5,105,Open,SBD,M,Raw
11,Daniele Pauli,1978,Switzerland,104.65,265,272.5,,272.5,170,180,185,185,290,300,305,305,762.5,105,Open,SBD,M,Raw
12,Tim Daniel Konertz,1989,Germany,104.05,260,-270,270,270,162.5,167.5,-172.5,167.5,307.5,322.5,-332.5,322.5,760,105,Open,SBD,M,Raw
13,Even Bless Liland,1991,Norway,104.6,240,250,255,255,180,185,190,190,275,287.5,302.5,302.5,747.5,105,Open,SBD,M,Raw
14,Yannick Henno,1994,Belgium,104.05,250,265,-272.5,265,190,-195,-195,190,270,285,-295,285,740,105,Open,SBD,M,Raw
15,Friedrich von Hennig,1992,Germany,104.5,-260,270,-282.5,270,-167.5,167.5,-177.5,167.5,302.5,-320,-320,302.5,740,105,Open,SBD,M,Raw
16,Paulius Morkvėnas,1992,Lithuania,103.75,237.5,245,252.5,252.5,200,205,210,210,265,275,-282.5,275,737.5,105,Open,SBD,M,Raw
17,Niklas Jäggi,1987,Switzerland,93.6,227.5,240,250,250,152.5,160,-167.5,160,280,-300,310,310,720,105,Open,SBD,M,Raw
18,Matic Hren,1994,Slovenia,104.45,240,-252.5,252.5,252.5,162.5,170,-175,170,270,285,290,290,712.5,105,Open,SBD,M,Raw
19,Jan Jindřich,1993,Czechia,103.85,240,255,260,260,160,172.5,180,180,270,-290,-290,270,710,105,Open,SBD,M,Raw
20,Arturs Paikis,1990,Latvia,103.35,210,220,-225,220,140,150,-155,150,230,-250,,230,600,105,Open,SBD,M,Raw
DQ,David Fernández Peláez,1985,Spain,103.6,-230,-230,-230,,160,165,-167.5,165,-250,250,,250,,105,Open,SBD,M,Raw
1,Amandas Paulauskas,1987,Lithuania,118.75,310,317.5,-322.5,317.5,242.5,245,250,250,320,330,340,340,907.5,120,Open,SBD,M,Raw
2,Piotr Sadowski #1,1993,Poland,119.2,320,-335,335,335,210,220,225,225,320,340,-350,340,900,120,Open,SBD,M,Raw
3,Mateusz Grzesik,1989,Poland,119.7,300,310,315,315,210,215,220,220,325,335,337.5,337.5,872.5,120,Open,SBD,M,Raw
4,Māris Juzups,1988,Latvia,119.8,315,327.5,-340.5,327.5,220,230,235,235,-290,295,310,310,872.5,120,Open,SBD,M,Raw
5,Carl Petter Sommerseth,1985,Norway,118.35,285,295,,295,205,212.5,-217.5,212.5,335,352.5,-357.5,352.5,860,120,Open,SBD,M,Raw
6,Baruch Sekenofsky,1993,UK,119.8,310,327.5,-335,327.5,190,200,205,205,310,322.5,-342.5,322.5,855,120,Open,SBD,M,Raw
7,Oleksiy Vyshnytskyy,1981,Ukraine,115.95,310,322.5,335,335,160,170,-175,170,330,-347.5,347.5,347.5,852.5,120,Open,SBD,M,Raw
8,Viktor Marynenko,1987,Ukraine,119.7,305,312.5,317.5,317.5,200,207.5,210,210,315,325,-342.5,325,852.5,120,Open,SBD,M,Raw
9,Andreas Reiz,1984,Germany,116.1,295,305,310,310,185,192.5,-200,192.5,315,325,335,335,837.5,120,Open,SBD,M,Raw
10,Paul-Johannes Heddrich,1991,Germany,115.75,280,295,-305,295,170,185,-190,185,-330,342.5,355,355,835,120,Open,SBD,M,Raw
11,Emil Gustafsson,1994,Sweden,119.6,275,287.5,-292.5,287.5,210,217.5,-222.5,217.5,290,305,312.5,312.5,817.5,120,Open,SBD,M,Raw
12,Michael Leitner,1994,Austria,118.3,-260,272.5,287.5,287.5,172.5,180,187.5,187.5,295,315,335,335,810,120,Open,SBD,M,Raw
13,Colin Power,1982,Ireland,113.3,265,-275,275,275,180,185,190,190,290,300,305,305,770,120,Open,SBD,M,Raw
1,Siim Rast,1988,Estonia,186.9,330,342.5,352.5,352.5,230,242.5,247.5,247.5,335,347.5,355,355,955,120+,Open,SBD,M,Raw
2,David Lupáč,1991,Czechia,150.4,300,315,330,330,220,230,240,240,330,350,-365,350,920,120+,Open,SBD,M,Raw
3,Rubén Rico Martín,1984,Spain,177.8,-330,330,350,350,210,220,-227.5,220,-325,325,337.5,337.5,907.5,120+,Open,SBD,M,Raw
4,Steve Ringoot,1989,Belgium,155.1,320,340,-350,340,220,230,235,235,310,322.5,-330,322.5,897.5,120+,Open,SBD,M,Raw
5,Mark Macqueen,1994,UK,144.15,-337.5,337.5,-350,337.5,197.5,210,-215,210,315,335,-360,335,882.5,120+,Open,SBD,M,Raw
6,Anton Solodov,1985,Russia,160,335,350,360,360,180,192.5,-200,192.5,325,-347.5,-347.5,325,877.5,120+,Open,SBD,M,Raw
7,Janis Ansmits,1991,Latvia,144.3,285,300,310,310,205,212.5,217.5,217.5,310,320,325,325,852.5,120+,Open,SBD,M,Raw
8,Tadas Gečas,1977,Lithuania,134.6,280,292.5,300,300,190,200,205,205,312.5,320,330,330,835,120+,Open,SBD,M,Raw
9,Gunnar De Vadder,1983,Belgium,148.45,-270,270,,270,210,222.5,-227.5,222.5,280,-290,-290,280,772.5,120+,Open,SBD,M,Raw
DQ,Jari Saario,1985,Finland,140.7,-315,-325,,,150,,,150,340,352.5,357.5,357.5,,120+,Open,SBD,M,Raw
1,Shamil Gadimov,2001,Russia,52.55,115,125,130,130,85,92.5,100,100,130,150,165,165,395,53,Sub-Juniors,SBD,M,Raw
2,Cristian Moise,2001,Romania,52.8,102.5,117.5,125,125,-62.5,62.5,-75,62.5,112.5,122.5,130,130,317.5,53,Sub-Juniors,SBD,M,Raw
3,Rolands Cirulis,2004,Latvia,52.54,100,115,-122.5,115,60,67.5,70,70,110,-120,-120,110,295,53,Sub-Juniors,SBD,M,Raw
1,Ilya Marichev,2001,Russia,58.9,160,170,180,180,107.5,112.5,117.5,117.5,215,225.5,226.5,226.5,524,59,Sub-Juniors,SBD,M,Raw
2,Arkadiusz Kostecki,2000,Poland,57.8,145,150,155,155,100,102.5,105,105,-185,185,187.5,187.5,447.5,59,Sub-Juniors,SBD,M,Raw
3,Artur Mansurov,2001,Russia,58.25,157.5,165,170,170,97.5,102.5,105,105,165,170,172.5,172.5,447.5,59,Sub-Juniors,SBD,M,Raw
4,Rostyslav Babiuk,2000,Ukraine,58.5,140,145,-147.5,145,105,110,-112.5,110,160,170,180,180,435,59,Sub-Juniors,SBD,M,Raw
5,Davíd Quirante Pérez,2001,Spain,58.9,150,157.5,-162.5,157.5,72.5,77.5,-80,77.5,190,-202.5,-202.5,190,425,59,Sub-Juniors,SBD,M,Raw
1,Viktor Vazhesov,2001,Russia,65.05,190,200,209,209,130,135,-137.5,135,180,192.5,197.5,197.5,541.5,66,Sub-Juniors,SBD,M,Raw
2,Yuriy Revuka,2000,Ukraine,65.3,182.5,187.5,-192.5,187.5,117.5,125,-127.5,125,200,210,215,215,527.5,66,Sub-Juniors,SBD,M,Raw
3,Jan Majerský,2001,Czechia,64.7,185,190,-192.5,190,115,120,-125,120,-215,215,-217.5,215,525,66,Sub-Juniors,SBD,M,Raw
4,Tomáš Vorel,2000,Czechia,65.4,170,177.5,-182.5,177.5,117.5,125,-130,125,205,212.5,-227.5,212.5,515,66,Sub-Juniors,SBD,M,Raw
5,Grégory Ostyn,2001,Belgium,65.75,150,160,165,165,112.5,-120,-120,112.5,195,205,212.5,212.5,490,66,Sub-Juniors,SBD,M,Raw
6,Maldis-Sveno Laur,2000,Estonia,64.5,-155,155,-165,155,122.5,127.5,130,130,185,-200,-210,185,470,66,Sub-Juniors,SBD,M,Raw
7,Mykhailo Kohut,2002,Ukraine,65.5,170,-180,182.5,182.5,117.5,-125,-125,117.5,170,-180,-180,170,470,66,Sub-Juniors,SBD,M,Raw
8,Albert Stankevich,2002,Belarus,65.7,170,182.5,-185,182.5,92.5,100,102.5,102.5,162.5,170,-172.5,170,455,66,Sub-Juniors,SBD,M,Raw
9,Paulius Ignatavičius,2000,Lithuania,65.4,160,-165,-165,160,87.5,92.5,95,95,187.5,195,-202.5,195,450,66,Sub-Juniors,SBD,M,Raw
1,Souleiman Turki,2000,France,73.3,216.5,-225,-225,216.5,125,132.5,-137.5,132.5,250,260.5,-270,260.5,609.5,74,Sub-Juniors,SBD,M,Raw
2,Simen Johnson Myrvold,2000,Norway,72.75,185,197.5,205,205,147.5,152.5,156,156,210,225,235,235,596,74,Sub-Juniors,SBD,M,Raw
3,Dawid Król,2000,Poland,73,200,205,-207.5,205,137.5,142.5,-145,142.5,225,235,-250,235,582.5,74,Sub-Juniors,SBD,M,Raw
4,Nojus Čypas,2000,Lithuania,71.65,175,185,187.5,187.5,112.5,-117.5,117.5,117.5,250,261,-270.5,261,566,74,Sub-Juniors,SBD,M,Raw
5,Artem Herashchenko,2000,Ukraine,73.2,195,202.5,-205,202.5,122.5,127.5,-130,127.5,235,-250,-255,235,565,74,Sub-Juniors,SBD,M,Raw
6,Denis Zsibrita,2000,Czechia,71.95,197.5,-205,-205,197.5,112.5,115,117.5,117.5,230,-235,-235,230,545,74,Sub-Juniors,SBD,M,Raw
7,Ollie Walker #1,2000,UK,70.75,170,-177.5,-177.5,170,125,130,135,135,200,210,215,215,520,74,Sub-Juniors,SBD,M,Raw
8,Matúš Vajdiar,2000,Slovakia,71.3,170,-185,-185,170,105,110,115,115,190,200,210,210,495,74,Sub-Juniors,SBD,M,Raw
9,Artem Klychkov,2000,Russia,73.25,190,-200,-200,190,105,110,-115,110,195,-200,-200,195,495,74,Sub-Juniors,SBD,M,Raw
10,Rik De Grauwe,2000,Belgium,70.6,162.5,-170,170,170,120,130,-135,130,190,-205,-215,190,490,74,Sub-Juniors,SBD,M,Raw
11,Rokas Burba,2001,Lithuania,73.1,165,-175,175,175,115,120,-125,120,170,180,190,190,485,74,Sub-Juniors,SBD,M,Raw
DQ,Martin Krýcha,2000,Czechia,72.4,162.5,170,172.5,172.5,-110,-110,-110,,200,205,,205,,74,Sub-Juniors,SBD,M,Raw
1,Vladislav Ditman,2000,Russia,82.6,195,205,215,215,142.5,151,158,158,230,240,247.5,247.5,620.5,83,Sub-Juniors,SBD,M,Raw
2,Karel Rada #2,2001,Czechia,82.65,225,-235,235,235,127.5,-135,-135,127.5,235,252.5,-260,252.5,615,83,Sub-Juniors,SBD,M,Raw
3,Rowan Kollau,2000,Netherlands,81.85,170,185,190,190,115,122.5,-125,122.5,272.5,-285,285,285,597.5,83,Sub-Juniors,SBD,M,Raw
4,Andrii Avramenko,2000,Ukraine,82.65,185,192.5,200,200,120,125,-127.5,125,232.5,240,-250,240,565,83,Sub-Juniors,SBD,M,Raw
5,Wlad Pesotsky,2000,Germany,82.4,195,205,-210,205,127.5,135,-140,135,210,217.5,-222.5,217.5,557.5,83,Sub-Juniors,SBD,M,Raw
6,Nikita Grigorjevs,2002,Latvia,81.6,180,192.5,197.5,197.5,135,140,-145,140,195,205,210,210,547.5,83,Sub-Juniors,SBD,M,Raw
7,Torda Tatrai,2001,Hungary,82,190,-200,200,200,130,-135,135,135,210,-222.5,-222.5,210,545,83,Sub-Juniors,SBD,M,Raw
8,Pyry Savinen,2000,Finland,82.6,160,170,182.5,182.5,100,107.5,-112.5,107.5,-230,230,252.5,252.5,542.5,83,Sub-Juniors,SBD,M,Raw
9,Lukas Kačinskas,2000,Lithuania,76.25,175,-182.5,182.5,182.5,115,120,-122.5,120,220,-237.5,237.5,237.5,540,83,Sub-Juniors,SBD,M,Raw
10,Mark Kihu,2000,Estonia,82.3,170,180,185,185,105,-110,110,110,215,225,-232.5,225,520,83,Sub-Juniors,SBD,M,Raw
11,Martynas Dumbliauskas,2001,Lithuania,82.3,162.5,167.5,-172.5,167.5,125,130,-132.5,130,185,192.5,200,200,497.5,83,Sub-Juniors,SBD,M,Raw
12,Jasper Leppäkangas,2000,Finland,77.45,160,170,180,180,92.5,100,-105,100,195,205,-215,205,485,83,Sub-Juniors,SBD,M,Raw
1,Anton Biruk,2000,Ukraine,93,252.5,260,266.5,266.5,145,152.5,157.5,157.5,260,272.5,277.5,277.5,701.5,93,Sub-Juniors,SBD,M,Raw
2,Bepo Pedisić,2000,Croatia,92.2,255,266,267,267,120,-130,130,130,270,-280,-280,270,667,93,Sub-Juniors,SBD,M,Raw
3,Matteo Masciarelli,2000,Italy,89.95,-220,220,240,240,127.5,135,140,140,252.5,267.5,277.5,277.5,657.5,93,Sub-Juniors,SBD,M,Raw
4,Jesper Vogelius,2000,Denmark,92,225,235,240,240,155,160,-162.5,160,245,257.5,-270,257.5,657.5,93,Sub-Juniors,SBD,M,Raw
5,Łukasz Klonowski,2000,Poland,91.5,225,235,-240,235,150,155,-160,155,245,255,-267.5,255,645,93,Sub-Juniors,SBD,M,Raw
6,Kirill Sakharov,2001,UK,92.35,212.5,225,235,235,155,162.5,165.5,165.5,220,232.5,237.5,237.5,638,93,Sub-Juniors,SBD,M,Raw
7,Edward Harber,2000,UK,92.3,205,222.5,230,230,152.5,160,-165.5,160,-240,240,-260,240,630,93,Sub-Juniors,SBD,M,Raw
8,Andrej Masaryk,2000,Slovakia,90.5,220,227.5,235,235,125,132.5,-140,132.5,220,-230,232.5,232.5,600,93,Sub-Juniors,SBD,M,Raw
9,Umberto Moffa,2000,Italy,90.15,207.5,215,-222.5,215,137.5,145,147.5,147.5,210,220,230,230,592.5,93,Sub-Juniors,SBD,M,Raw
10,Remi Permentier,2000,Belgium,90.9,220,227.5,-232.5,227.5,130,-137.5,-137.5,130,210,217.5,220,220,577.5,93,Sub-Juniors,SBD,M,Raw
11,Ondřej Šíp,2002,Czechia,90.55,200,210,220,220,110,117.5,-122.5,117.5,215,225,235,235,572.5,93,Sub-Juniors,SBD,M,Raw
12,Sven Rausch,2001,Germany,92.45,187.5,-195,195,195,117.5,122.5,127.5,127.5,245,250,-257.5,250,572.5,93,Sub-Juniors,SBD,M,Raw
13,Jan Matulík,2000,Czechia,91,177.5,190,197.5,197.5,102.5,110,-115,110,225,240,247.5,247.5,555,93,Sub-Juniors,SBD,M,Raw
14,James Stelian Jejeran,2002,Romania,89.15,185,192.5,200,200,-140,140,-147.5,140,190,200,205,205,545,93,Sub-Juniors,SBD,M,Raw
1,Corentin Clément,2000,France,104.75,275,287.5,-293,287.5,180,184.5,-185.5,184.5,310,324,-328,324,796,105,Sub-Juniors,SBD,M,Raw
2,Matej Skycak,2001,Slovakia,99.6,235,240,250,250,140,150,-152.5,150,270,290,-300,290,690,105,Sub-Juniors,SBD,M,Raw
3,Václav Vlk,2000,Czechia,102.2,220,230,235,235,150,-157.5,-157.5,150,255,265,-272.5,265,650,105,Sub-Juniors,SBD,M,Raw
4,Svyatoslav Zozulya,2003,Russia,103.9,227.5,240,250,250,132.5,142.5,-150,142.5,232.5,242.5,250,250,642.5,105,Sub-Juniors,SBD,M,Raw
1,Konrad Litwiński,2000,Poland,105.45,225,235,240,240,115,125,132.5,132.5,240,255,260,260,632.5,120,Sub-Juniors,SBD,M,Raw
2,Karol Wójcik,2001,Poland,109.2,232.5,237.5,240,240,147.5,-152.5,-152.5,147.5,240,245,-250,245,632.5,120,Sub-Juniors,SBD,M,Raw
3,Artem Usov,2000,Czechia,111.6,215,230,237.5,237.5,130,140,-145,140,215,230,240,240,617.5,120,Sub-Juniors,SBD,M,Raw
4,Reigo Frei,2000,Estonia,106.75,185,200,205,205,110,117.5,122.5,122.5,242.5,260,262.5,262.5,590,120,Sub-Juniors,SBD,M,Raw
5,Lee McCafferty,2002,UK,117.85,202.5,212.5,-220,212.5,130,140,-142.5,140,205,212.5,217.5,217.5,570,120,Sub-Juniors,SBD,M,Raw
6,Roman Rodionov,2001,Russia,110.45,200,215,220,220,110,120,125,125,180,190,-195,190,535,120,Sub-Juniors,SBD,M,Raw
1,Nuutti Mansukoski,2000,Finland,141.8,240,260,272.5,272.5,165,175,-180,175,280,290,-301,290,737.5,120+,Sub-Juniors,SBD,M,Raw
2,Sergey Volkov,2002,Russia,120.4,250,267.5,275,275,160,170,177.5,177.5,250,270,-297.5,270,722.5,120+,Sub-Juniors,SBD,M,Raw
3,Albert Ruta,2002,Poland,129.7,220,-230,240,240,135,140,-142.5,140,220,230,235,235,615,120+,Sub-Juniors,SBD,M,Raw
4,Ray Bowring,2002,UK,127.7,220,235,240,240,115,125,130,130,200,220,-245,220,590,120+,Sub-Juniors,SBD,M,Raw
5,Ian Lucy,2000,UK,129.3,190,205,210,210,117.5,125,-127.5,125,227.5,235,-247.5,235,570,120+,Sub-Juniors,SBD,M,Raw
1,Andrey Poddubnyak,1999,Russia,52.7,140,150,-160,150,90,100,-105,100,170,180,-195,180,430,53,Juniors,SBD,M,Raw
1,Rostyslav Zherebtsov,1998,Ukraine,58.2,155,160,165,165,112.5,117.5,122.5,122.5,180,192.5,202.5,202.5,490,59,Juniors,SBD,M,Raw
2,Edgars Jurkans,1998,Latvia,58.6,150,157.5,162.5,162.5,115,122.5,127.5,127.5,190,-197.5,200,200,490,59,Juniors,SBD,M,Raw
3,Vidmantas Žibūda,1999,Lithuania,58.5,120,140,-157.5,140,55,65,75,75,140,155,165,165,380,59,Juniors,SBD,M,Raw
1,Dawid Natorski,1995,Poland,65.65,192.5,200,-205,200,132.5,137.5,142.5,142.5,235,245.5,250.5,250.5,593,66,Juniors,SBD,M,Raw
2,Adam Veres,1996,Hungary,65.95,182.5,190,197.5,197.5,137.5,142.5,145,145,210,230,-237.5,230,572.5,66,Juniors,SBD,M,Raw
3,Andrea Castello,1995,Italy,64.55,200,207.5,-210,207.5,117.5,122.5,127.5,127.5,227.5,-242.5,-242.5,227.5,562.5,66,Juniors,SBD,M,Raw
4,Sergey Chizhikov,1997,Russia,64.5,210,220,225,225,115,120,-122.5,120,215,-222.5,-222.5,215,560,66,Juniors,SBD,M,Raw
5,Jesús Javier Quirante Pérez,1997,Spain,65.25,180,-190,-190,180,120,125,-127.5,125,230,240,-250.5,240,545,66,Juniors,SBD,M,Raw
6,Ploutis Koumi,1997,UK,64.65,172.5,182.5,187.5,187.5,115,120,-125,120,212.5,222.5,-227.5,222.5,530,66,Juniors,SBD,M,Raw
7,Dylan Potter,1999,Ireland,64.95,167.5,175,180,180,127.5,132.5,137.5,137.5,192.5,-200,205,205,522.5,66,Juniors,SBD,M,Raw
8,Gheorghe Moise,1995,Romania,65.9,185,-195,200,200,120,130,-135,130,180,190,-200,190,520,66,Juniors,SBD,M,Raw
9,Daniel Jay #1,1995,UK,65.45,157.5,165,-170,165,117.5,125,-127.5,125,-210,217.5,-230,217.5,507.5,66,Juniors,SBD,M,Raw
10,Deimantas Urbietis,1996,Lithuania,66,140,150,160,160,120,130,-132.5,130,185,-200,,185,475,66,Juniors,SBD,M,Raw
11,Linas Abakas,1999,Lithuania,65.25,135,145,-150,145,95,102.5,107.5,107.5,175,190,195,195,447.5,66,Juniors,SBD,M,Raw
DQ,Artsiom Savelyeu,1998,Belarus,65.7,230,237.5,-240,237.5,125,132.5,137.5,137.5,-235,-235,-235,,,66,Juniors,SBD,M,Raw
1,Riccardo Angelini,1997,Italy,72.85,225,235,242.5,242.5,157.5,165,167.5,167.5,250,265,272.5,272.5,682.5,74,Juniors,SBD,M,Raw
2,Matti Christensen,1995,Denmark,72.85,242.5,250,255.5,255.5,190,195.5,-200.5,195.5,215,222.5,230,230,681,74,Juniors,SBD,M,Raw
3,Mykyta Sukhorutchenko,1995,Ukraine,73.99,222.5,227.5,232.5,232.5,162.5,167.5,170,170,242.5,247.5,250,250,652.5,74,Juniors,SBD,M,Raw
4,Nathan Winsala,1998,UK,73.25,225,235,242.5,242.5,125,130,-132.5,130,245,260,-265,260,632.5,74,Juniors,SBD,M,Raw
5,Andreas Nilsson #1,1998,Sweden,73.65,215,225,-230,225,162.5,-170,-170,162.5,242.5,-257.5,-265,242.5,630,74,Juniors,SBD,M,Raw
6,Vadym Yarzhemskyi,1999,Ukraine,73.65,-210,210,220,220,167.5,-172.5,172.5,172.5,235,-242.5,-250,235,627.5,74,Juniors,SBD,M,Raw
7,Klaus Kaufmann,1996,Austria,72.75,200,212.5,220,220,125,132.5,140,140,-235,235,250,250,610,74,Juniors,SBD,M,Raw
8,Aleksandr Kapturov,1995,Russia,73.3,230,-242.5,-242.5,230,120,127.5,-130,127.5,235,242.5,247.5,247.5,605,74,Juniors,SBD,M,Raw
9,Josh Foyle,1998,Ireland,72.6,200,210,217.5,217.5,125,130,132.5,132.5,240,250,-255,250,600,74,Juniors,SBD,M,Raw
10,David Vesseur,1995,Netherlands,73.3,207.5,-220,-220,207.5,125,132.5,-137.5,132.5,220,230,245,245,585,74,Juniors,SBD,M,Raw
11,Sebastian Sądej,1996,Poland,73.3,205,212.5,215,215,137.5,142.5,-145,142.5,-225,225,-235,225,582.5,74,Juniors,SBD,M,Raw
12,Souhards Bhandari,1999,Latvia,73.3,182.5,192.5,200,200,117.5,125,-132.5,125,225,-240,240,240,565,74,Juniors,SBD,M,Raw
13,Sean Ferran,1997,Ireland,71.5,200,207.5,212.5,212.5,125,130,135,135,195,205,212.5,212.5,560,74,Juniors,SBD,M,Raw
1,Chido Nnoli,1997,Norway,81.8,225,240,-250,240,152.5,160,162.5,162.5,300,316,-326,316,718.5,83,Juniors,SBD,M,Raw
2,Pavel Agarkov,1995,Russia,83,240,250,257.5,257.5,150,157.5,-162.5,157.5,282.5,292.5,-305,292.5,707.5,83,Juniors,SBD,M,Raw
3,Stanislav Zdrobylko,1995,Ukraine,82.6,250,257.5,262.5,262.5,177.5,182.5,-185,182.5,245,252.5,257.5,257.5,702.5,83,Juniors,SBD,M,Raw
4,Emilio Cotti Cometti,1995,Italy,80.9,232.5,240,-247.5,240,150,160,165,165,270,285,-292.5,285,690,83,Juniors,SBD,M,Raw
5,Enrico Scarcia,1996,Italy,81.5,220,230,235,235,140,145,-147.5,145,277.5,287.5,295,295,675,83,Juniors,SBD,M,Raw
6,Teemu Hällfors,1995,Finland,81.95,220,237.5,242.5,242.5,182.5,187.5,-192.5,187.5,240,-252.5,-255,240,670,83,Juniors,SBD,M,Raw
7,Theodor Dima,1996,Romania,81.8,245,255,262.5,262.5,125,135,140,140,240,255,262.5,262.5,665,83,Juniors,SBD,M,Raw
8,René Hofer,1997,Austria,82.9,245,255,-260,255,132.5,-140,-140,132.5,270,-282.5,-292.5,270,657.5,83,Juniors,SBD,M,Raw
9,Mikkel Nehlsen Sørensen,1998,Denmark,79.6,212.5,222.5,-230,222.5,165,170,-175,170,245,-255,255,255,647.5,83,Juniors,SBD,M,Raw
10,Sindre Mobraaten,1995,Norway,82.45,215,230,240,240,137.5,145,150,150,240,257.5,-270,257.5,647.5,83,Juniors,SBD,M,Raw
11,Žilvinas Margevičius,1996,Lithuania,82.25,220,230,-240,230,140,145,-150,145,230,240,250,250,625,83,Juniors,SBD,M,Raw
12,Lee Clarke,1997,Ireland,80.2,210,217.5,225,225,147.5,155,-157.5,155,225,235,242.5,242.5,622.5,83,Juniors,SBD,M,Raw
DQ,Mikita Stsepaniuk,1996,Belarus,81.8,-250,-250,-250,,150,155,-160,155,260,270,-275,270,,83,Juniors,SBD,M,Raw
DQ,Pavlo Mysnyk,1995,Ukraine,82.4,-210,-210,-210,,170,-180,180,180,270,290,-295,290,,83,Juniors,SBD,M,Raw
DQ,Rubén Fuentes Medina,1995,Spain,80.7,-250,250,260,260,155,160,,160,-260,,,,,83,Juniors,SBD,M,Raw
1,Gustav Hedlund,1995,Sweden,91.35,285,295,-300,295,190,197.5,-203.5,197.5,317.5,-332.5,-332.5,317.5,810,93,Juniors,SBD,M,Raw
2,Bob van den Boogaard,1995,Netherlands,92.8,285,297.5,-305.5,297.5,145,150,155,155,292.5,302.5,307.5,307.5,760,93,Juniors,SBD,M,Raw
3,Ivan Iliev,1995,Bulgaria,90.25,-250,-250,250,250,182.5,192.5,-195,192.5,300,-312.5,-312.5,300,742.5,93,Juniors,SBD,M,Raw
4,Erik Mata,1996,UK,92.1,245,-260,267.5,267.5,165,172.5,-175,172.5,270,-287.5,290,290,730,93,Juniors,SBD,M,Raw
5,Adedapo Ojewale,1997,UK,89.8,242.5,252.5,-257.5,252.5,152.5,157.5,160,160,297.5,310,315,315,727.5,93,Juniors,SBD,M,Raw
6,Sami Lehtonen,1995,Finland,91.55,235,242.5,-245,242.5,175,180,-182.5,180,290,305,-322.5,305,727.5,93,Juniors,SBD,M,Raw
7,Hynek Fránek,1995,Czechia,92.1,250,260,270,270,162.5,172.5,-177.5,172.5,240,250,260,260,702.5,93,Juniors,SBD,M,Raw
8,Miguel Martínez González,1995,Spain,88.25,240,255,-262.5,255,152.5,160,165,165,270,-280,-280,270,690,93,Juniors,SBD,M,Raw
9,Jakub Vágner,1997,Czechia,91.55,230,250,260,260,145,152.5,-155,152.5,255,275,-290,275,687.5,93,Juniors,SBD,M,Raw
10,Serhii Babenko,1997,Ukraine,92.6,250,260,-272.5,260,145,152.5,-155,152.5,-260,260,-290,260,672.5,93,Juniors,SBD,M,Raw
11,Paul Egger,1998,Austria,90.65,227.5,240,252.5,252.5,125,130,135,135,265,-280,280,280,667.5,93,Juniors,SBD,M,Raw
12,Hendrik Wobst #1,1997,Germany,93,255,260,-262.5,260,140,145,-147.5,145,252.5,-257.5,257.5,257.5,662.5,93,Juniors,SBD,M,Raw
13,Kęstutis Šiaučiūnas,1999,Lithuania,92.7,220,230,-240,230,145,155,-157.5,155,230,250,-267.5,250,635,93,Juniors,SBD,M,Raw
14,Pearse Tohill,1997,Ireland,91.2,205,215,220,220,110,115,117.5,117.5,257.5,270,280,280,617.5,93,Juniors,SBD,M,Raw
15,Conor Kennedy,1996,Ireland,91.35,210,220,227.5,227.5,125,130,135,135,240,247.5,252.5,252.5,615,93,Juniors,SBD,M,Raw
16,Tautvydas Sutkus,1998,Lithuania,92.9,190,200,-207.5,200,120,130,135,135,220,230,-235,230,565,93,Juniors,SBD,M,Raw
17,Mihkel Ruut,1999,Estonia,91.8,-190,190,200,200,120,127.5,-132.5,127.5,220,-235,-237.5,220,547.5,93,Juniors,SBD,M,Raw
1,Emil Norling,1996,Sweden,103.5,290,300,305,305,175,180,-185,180,320,332.5,345,345,830,105,Juniors,SBD,M,Raw
2,Vladislav Aksennikov,1997,Russia,103.4,270,280,290,290,185,192.5,197.5,197.5,315,327.5,340,340,827.5,105,Juniors,SBD,M,Raw
3,Jokūbas Stasiulis,1995,Lithuania,104.95,270,277.5,280,280,200,207.5,-214,207.5,290,300,-307.5,300,787.5,105,Juniors,SBD,M,Raw
4,Luke Tolman,1999,UK,98.3,255,265,272.5,272.5,200,210,-214,210,255,270,285,285,767.5,105,Juniors,SBD,M,Raw
5,Luboslav Bulikin,1998,Bulgaria,103.8,-255,255,262.5,262.5,180,185,-187.5,185,310,320,-333.5,320,767.5,105,Juniors,SBD,M,Raw
6,Niko Nurmi,1995,Finland,105,270,285,-290,285,165,-170,,165,300,-302.5,-322.5,300,750,105,Juniors,SBD,M,Raw
7,Daniel Fischer,1995,Denmark,104.6,250,262.5,270,270,162.5,172.5,-177.5,172.5,280,295,-302.5,295,737.5,105,Juniors,SBD,M,Raw
8,Damian Steinke,1997,Norway,104,252.5,-262.5,265,265,155,162.5,-167.5,162.5,280,295,305,305,732.5,105,Juniors,SBD,M,Raw
9,Ludwig Bachner,1998,Austria,103.95,260,270,-285,270,155,165,170,170,270,290,-300,290,730,105,Juniors,SBD,M,Raw
10,Víctor Vázquez Hernández-Carrillo,1995,Spain,103.9,-270,-270,270,270,165,-172.5,-172.5,165,292.5,-307.5,-307.5,292.5,727.5,105,Juniors,SBD,M,Raw
11,Alexander Pierides,1995,UK,104.5,250,262.5,265,265,175,-182.5,-182.5,175,265,275,-280,275,715,105,Juniors,SBD,M,Raw
12,Adam Kalivoda,1997,Ireland,102.75,245,257.5,-262.5,257.5,130,132.5,-137.5,132.5,265,272.5,277.5,277.5,667.5,105,Juniors,SBD,M,Raw
13,Julian Kohler,1995,Switzerland,103.05,235,247.5,252.5,252.5,155,160,-167.5,160,-235,245,255,255,667.5,105,Juniors,SBD,M,Raw
DQ,Adrian Świerczyński,1996,Poland,104,-260,-260,-260,,180,190,-195,190,285,295,-300,295,,105,Juniors,SBD,M,Raw
1,Mehmet Kaya,1996,Sweden,119.2,310,328,335.5,335.5,185,190,195,195,320,330,,330,860.5,120,Juniors,SBD,M,Raw
2,Dmytro Vovk,1996,Ukraine,119.2,300,312.5,-320,312.5,225,235,-240.5,235,280,295,300,300,847.5,120,Juniors,SBD,M,Raw
3,Kieran Gray,1996,UK,118.85,275,295,305,305,192.5,205,212.5,212.5,295,310,-330,310,827.5,120,Juniors,SBD,M,Raw
4,Mikhail Vlasov,1995,Russia,118.55,285,295,302.5,302.5,195,202.5,-207.5,202.5,285,295,-300,295,800,120,Juniors,SBD,M,Raw
5,Ole Soerbo Borup,1995,Denmark,119.15,260,272.5,277.5,277.5,175,182.5,187.5,187.5,305,322.5,332.5,332.5,797.5,120,Juniors,SBD,M,Raw
6,Robin Meineke,1996,Germany,117,260,272.5,280,280,185,190,192.5,192.5,280,292.5,302.5,302.5,775,120,Juniors,SBD,M,Raw
7,Gianluca Galletto,1995,Italy,119.4,-265,275,-290,275,180,187.5,-192.5,187.5,-300,312.5,-322.5,312.5,775,120,Juniors,SBD,M,Raw
8,Audun Kjoberg Inge,1995,Norway,113.25,252.5,262.5,270,270,167.5,175,180,180,287.5,302.5,312.5,312.5,762.5,120,Juniors,SBD,M,Raw
9,Christian Raunikar,1996,Austria,119,257.5,-275,280,280,155,162.5,167.5,167.5,275,290,300,300,747.5,120,Juniors,SBD,M,Raw
10,Michal Dorotík,1995,Czechia,117.15,230,240,252.5,252.5,140,152.5,162.5,162.5,240,255,-270,255,670,120,Juniors,SBD,M,Raw
11,Daniel Holmstedt,1999,Finland,116.5,230,245,250,250,145,152.5,157.5,157.5,230,242.5,250,250,657.5,120,Juniors,SBD,M,Raw
12,Henri Karjaluoto,1995,Finland,119.2,232.5,245,-255,245,-125,-125,125,125,250,270,-290,270,640,120,Juniors,SBD,M,Raw
13,Aivar Siska,1997,Estonia,111.15,200,202.5,215,215,125,130,-135,130,220,240,-250,240,585,120,Juniors,SBD,M,Raw
2,Pavlo Nakonechnyy,1997,Ukraine,174.4,360,380,-392.5,380,230,240,245.5,245.5,370,385,-386,385,1010.5,120+,Juniors,SBD,M,Raw
1,Luke Richardson #1,1997,UK,147.25,360,385,403,403,197.5,212.5,222.5,222.5,347.5,370,385,385,1010.5,120+,Juniors,SBD,M,Raw
3,Zoltan Seres,1995,Hungary,129.4,280,295,302.5,302.5,210,220,-225,220,310,325,332.5,332.5,855,120+,Juniors,SBD,M,Raw
4,Erik Røen,1996,Norway,140.25,300,-312.5,315,315,175,182.5,187.5,187.5,310,330,-355,330,832.5,120+,Juniors,SBD,M,Raw
5,Valtteri Mäkilä,1999,Finland,151.9,260,275,-280,275,180,-187.5,-187.5,180,285,305,-310,305,760,120+,Juniors,SBD,M,Raw
6,Pavel Grudinin,1995,Russia,126.3,260,275,-285,275,160,172.5,-177.5,172.5,260,280,295,295,742.5,120+,Juniors,SBD,M,Raw
7,Oliver Durc,1995,Slovakia,129.85,-250,-260,260,260,170,180,-190,180,280,290,-300,290,730,120+,Juniors,SBD,M,Raw
8,Daniel Ordean,1995,Romania,138.5,250,-262.5,-262.5,250,150,-162.5,-162.5,150,230,240,,240,640,120+,Juniors,SBD,M,Raw
9,Tomasz Luliński,1998,Poland,125.35,-210,210,220,220,140,145,147.5,147.5,250,260,-270,260,627.5,120+,Juniors,SBD,M,Raw
1,Noémie Allabert,1990,France,46.4,117.5,125,130,130,65,70,75,75,145,155,165.5,165.5,370.5,47,Open,SBD,F,Raw
2,Janine Martin,1986,Ireland,44.8,95,100,102.5,102.5,72.5,77.5,80,80,130,140,145,145,327.5,47,Open,SBD,F,Raw
3,Tatiana Koroleva,1986,Russia,46.09,105,110,-115,110,72.5,75,77.5,77.5,130,140,-142.5,140,327.5,47,Open,SBD,F,Raw
4,Danielle Malcolm,1991,UK,46.35,102.5,110,-115,110,67.5,70,72.5,72.5,135,-142.5,-142.5,135,317.5,47,Open,SBD,F,Raw
5,Ewa Mioduszewska,1989,Poland,46,105,110,-115,110,50,55,-57.5,55,140,147.5,-152.5,147.5,312.5,47,Open,SBD,F,Raw
1,Olga Golubeva,1970,Russia,51.75,-125,125,130,130,95,-100,-100,95,152.5,160,165,165,390,52,Open,SBD,F,Raw
2,Pleun Dekkers,1994,Netherlands,51.1,137.5,142.5,147.5,147.5,-75,75,-77.5,75,147.5,152.5,-155,152.5,375,52,Open,SBD,F,Raw
3,Laura Savolainen,1989,Sweden,51.65,120,125,-127.5,125,82.5,-87.5,87.5,87.5,155,160,-165,160,372.5,52,Open,SBD,F,Raw
4,Margit Lehoczkyne Fawal,1988,Hungary,49.09,125,-127.5,127.5,127.5,77.5,82.5,85,85,145,155,-160,155,367.5,52,Open,SBD,F,Raw
5,Maruska Bertoli,1979,Italy,50.4,115,122.5,132.5,132.5,70,75,77.5,77.5,150,-157.5,-162.5,150,360,52,Open,SBD,F,Raw
6,Shizuka Rico,1994,France,51.6,122.5,-127.5,127.5,127.5,67.5,-72.5,-72.5,67.5,160,-165,-165,160,355,52,Open,SBD,F,Raw
7,Maria Ushakova,1986,Russia,52,112.5,117.5,-120,117.5,80,85,-87.5,85,147.5,152.5,-162.5,152.5,355,52,Open,SBD,F,Raw
8,Mariya Yermak,1989,Belarus,51.05,137.5,-140,-142.5,137.5,60,-65,65,65,132.5,-135,-135,132.5,335,52,Open,SBD,F,Raw
9,Johanna Forsström,1988,Finland,51.25,115,120,-125,120,82.5,85,-87.5,85,130,-135,,130,335,52,Open,SBD,F,Raw
10,Barbara Gapp,1981,Austria,51.2,90,95,100,100,55,57.5,-60,57.5,165,170,-196,170,327.5,52,Open,SBD,F,Raw
11,Ingrida Pivoriūnaitė,1992,Lithuania,50.5,90,-92.5,-100,90,60,70,-77.5,70,95,97.5,115,115,275,52,Open,SBD,F,Raw
1,Joy Nnamani,1992,UK,56.15,145,152.5,-155,152.5,80,85,-87.5,85,190,202.5,-210,202.5,440,57,Open,SBD,F,Raw
2,Inna Filimonova #1,1976,Russia,56.35,157.5,165,-170,165,75,80,82.5,82.5,165,175,182.5,182.5,430,57,Open,SBD,F,Raw
3,Bobbie Butters,1994,UK,56.25,145,-155,160,160,82.5,90,95,95,155,165,172.5,172.5,427.5,57,Open,SBD,F,Raw
4,Elena Shcherbakova,1985,Russia,56.5,137.5,145,147.5,147.5,90,-95,95,95,152.5,160,-165,160,402.5,57,Open,SBD,F,Raw
5,Mélodie Anthouard,1988,France,56.55,137.5,142.5,145,145,-100,100,-105,100,-155,155,-165,155,400,57,Open,SBD,F,Raw
6,Iris Scholten,1992,Netherlands,56.2,140,147.5,150,150,85,-87.5,87.5,87.5,152.5,160,-162.5,160,397.5,57,Open,SBD,F,Raw
7,Evita Talahatu,1987,Netherlands,57,142.5,147.5,152.5,152.5,82.5,87.5,-92.5,87.5,130,140,145,145,385,57,Open,SBD,F,Raw
8,Hanna Seppä,1993,Finland,56.4,130,135,137.5,137.5,70,75,-77.5,75,160,170,-177.5,170,382.5,57,Open,SBD,F,Raw
9,Chloé-Jade McDonald,1992,Ireland,56.2,125,130,132.5,132.5,65,70,72.5,72.5,160,170,175,175,380,57,Open,SBD,F,Raw
10,Katja Babič,1993,Slovenia,55.6,132.5,137.5,142.5,142.5,70,72.5,75,75,150,-157.5,-157.5,150,367.5,57,Open,SBD,F,Raw
11,Olimpia Felińska,1992,Poland,56.01,110,117.5,122.5,122.5,80,85,-87.5,85,120,130,137.5,137.5,345,57,Open,SBD,F,Raw
DQ,Iryna Horna,1992,Ukraine,56.1,112.5,-117.5,-117.5,112.5,82.5,-85,-85,82.5,-150,-150,-150,,,57,Open,SBD,F,Raw
DQ,Martina Lang,1988,Austria,57,-125,-125,-125,,-80,80,-90,80,125,130,-135,130,,57,Open,SBD,F,Raw
1,Ivana Horná,1990,Slovakia,62.5,162.5,167.5,170,170,92.5,97.5,-100,97.5,202.5,210,-215.5,210,477.5,63,Open,SBD,F,Raw
2,Prescillia Bavoil,1993,France,62.25,-170,-175,175,175,87.5,92.5,95,95,190,200,-207.5,200,470,63,Open,SBD,F,Raw
3,Brónagh McPeake,1992,Ireland,61.9,162.5,170,178,178,85,90,92.5,92.5,175,190,-200,190,460.5,63,Open,SBD,F,Raw
4,Maria Dubenskaya,1988,Russia,62.85,142.5,150,-152.5,150,112.5,117.5,120,120,152.5,162.5,167.5,167.5,437.5,63,Open,SBD,F,Raw
5,Signe Elisabeth Belden,1983,Norway,62.4,155,162.5,-165,162.5,90,95,-100,95,165,172.5,-180,172.5,430,63,Open,SBD,F,Raw
6,Lucia Puricelli,1993,UK,59.6,150,160,165,165,82.5,87.5,90,90,147.5,160,170,170,425,63,Open,SBD,F,Raw
7,Kateryna Plis,1990,Ukraine,62.45,150,160,167.5,167.5,65,70,75,75,150,162.5,167.5,167.5,410,63,Open,SBD,F,Raw
8,Štěpánka Židová,1994,Czechia,62.75,135,140,-145,140,82.5,87.5,-90,87.5,155,165,-172.5,165,392.5,63,Open,SBD,F,Raw
9,Sari Uski,1986,Finland,62.75,140,-150,-150,140,80,82.5,85,85,155,162.5,167.5,167.5,392.5,63,Open,SBD,F,Raw
10,Anne Daineffe,1982,Belgium,61.6,132.5,-137.5,137.5,137.5,82.5,87.5,-90,87.5,145,155,160,160,385,63,Open,SBD,F,Raw
11,Lenka Strolená,1984,Czechia,61.65,120,130,135,135,75,80,85,85,140,150,157.5,157.5,377.5,63,Open,SBD,F,Raw
12,Geina McGrath,1990,Ireland,61.85,117.5,125,130,130,70,75,77.5,77.5,155,162.5,-170,162.5,370,63,Open,SBD,F,Raw
13,Emilia Sobiech-Konopa,1988,Poland,62.7,135,-140,-140,135,70,-75,75,75,150,157.5,-165,157.5,367.5,63,Open,SBD,F,Raw
14,Ruth Viehauser,1988,Austria,62.35,122.5,127.5,132.5,132.5,67.5,72.5,75,75,145,-155,155,155,362.5,63,Open,SBD,F,Raw
15,Lina Gerutė,1976,Lithuania,59.8,100,107.5,110,110,47.5,-52.5,52.5,52.5,145,157.5,165,165,327.5,63,Open,SBD,F,Raw
16,Anne Laidla,1993,Estonia,61.3,95,-102.5,102.5,102.5,47.5,-52.5,-52.5,47.5,115,125,-132.5,125,275,63,Open,SBD,F,Raw
1,Maria Letnes,1991,Norway,71.85,167.5,-175,-175,167.5,112.5,120,-122.5,120,182.5,190,-195,190,477.5,72,Open,SBD,F,Raw
2,Angelina Elovikova,1993,Russia,71.5,162.5,172.5,177.5,177.5,85,90,95,95,187.5,197.5,-207.5,197.5,470,72,Open,SBD,F,Raw
3,Susanna Argile,1992,UK,70,170,-177.5,177.5,177.5,100,-105,-105,100,175,190,-195,190,467.5,72,Open,SBD,F,Raw
4,Sharr Beeren,1990,Netherlands,71.6,155,165,170,170,85,-87.5,87.5,87.5,182.5,190,-197.5,190,447.5,72,Open,SBD,F,Raw
5,Johanna Kankus,1984,Finland,70.7,170,-175,-175,170,105,107.5,-110,107.5,165,-177.5,,165,442.5,72,Open,SBD,F,Raw
6,Sara Mazzantini,1990,Italy,67.9,130,142.5,155,155,90,100,-102.5,100,175,185,-197.5,185,440,72,Open,SBD,F,Raw
7,Annemari Løberg Larsen,1992,Norway,71.1,-160,160,-162.5,160,70,72.5,-75,72.5,200,207.5,-215,207.5,440,72,Open,SBD,F,Raw
8,Pantea Supanetz,1990,Austria,69.4,160,167.5,-172.5,167.5,90,95,100,100,160,170,-175,170,437.5,72,Open,SBD,F,Raw
9,Jonna Kettunen,1992,Finland,71.3,157.5,-165,-165,157.5,80,85,90,90,185,-195,-197.5,185,432.5,72,Open,SBD,F,Raw
10,Karolina Radgowska,1992,Poland,70.4,157.5,162.5,-167.5,162.5,67.5,-72.5,72.5,72.5,180,187.5,-195,187.5,422.5,72,Open,SBD,F,Raw
11,Annette Pedersen,1968,Denmark,68.9,127.5,-132.5,-132.5,127.5,95,100,102.5,102.5,177.5,-195,-195,177.5,407.5,72,Open,SBD,F,Raw
12,Clare Patterson,1984,Ireland,70.5,-135,135,142.5,142.5,105,-107.5,107.5,107.5,140,150,155,155,405,72,Open,SBD,F,Raw
13,Kristina Valaitienė,1988,Lithuania,70.85,100,115,-130,115,65,67.5,-72.5,67.5,130,145,155,155,337.5,72,Open,SBD,F,Raw
14,Živilė Satkutė,1986,Lithuania,68.7,90,-100,100,100,55,57.5,-60,57.5,125,-135,-135,125,282.5,72,Open,SBD,F,Raw
1,Ielja Strik,1973,Netherlands,83.3,185,192.5,200,200,130,-135,-135,130,180,-190,-197.5,180,510,84,Open,SBD,F,Raw
2,Sylvia Szarvas,1984,Germany,82.45,165,170,-172.5,170,-122.5,-125,125,125,170,180,185,185,480,84,Open,SBD,F,Raw
3,Iris Kensenhuis,1983,Netherlands,82.2,165,170,172.5,172.5,77.5,82.5,85,85,205,212.5,220,220,477.5,84,Open,SBD,F,Raw
4,Isabel Carina Nakken Cloin,1988,Norway,83.35,170,177.5,182.5,182.5,85,90,-92.5,90,190,197.5,205,205,477.5,84,Open,SBD,F,Raw
5,Anne Karlsen,1992,Denmark,81.85,155,160,-165,160,85,90,-92.5,90,195,-212.5,-212.5,195,445,84,Open,SBD,F,Raw
6,Lise Frederiksen,1982,Denmark,81.85,150,157.5,-162.5,157.5,85,92.5,-97.5,92.5,170,180,185,185,435,84,Open,SBD,F,Raw
7,Louise Kenna,1982,Ireland,81.7,150,157.5,-162.5,157.5,90,92.5,-95,92.5,177.5,-187.5,-195,177.5,427.5,84,Open,SBD,F,Raw
8,Teanna Watts,1992,Ireland,80.35,-155,155,-160,155,90,92.5,-95,92.5,-160,162.5,167.5,167.5,415,84,Open,SBD,F,Raw
9,Karolina Gaczyńska,1992,Poland,78,152.5,-162.5,162.5,162.5,77.5,85,-87.5,85,152.5,162.5,-167.5,162.5,410,84,Open,SBD,F,Raw
1,Amélie Mierger,1992,France,137.7,215,222.5,227.5,227.5,125,130,132.5,132.5,205,215,220,220,580,84+,Open,SBD,F,Raw
2,Leigh Wetheridge,1994,UK,111.1,190,205,215,215,105,112.5,117.5,117.5,215,228,-235.5,228,560.5,84+,Open,SBD,F,Raw
3,Ágnes Szabó,1988,Hungary,118.15,200,207.5,,207.5,132.5,137.5,140,140,175,185,190,190,537.5,84+,Open,SBD,F,Raw
4,Camille Holland,1988,UK,131.1,220,230,238,238,100,107.5,112.5,112.5,167.5,180,185,185,535.5,84+,Open,SBD,F,Raw
5,Emelie Leach,1993,Sweden,142.25,195,202.5,207.5,207.5,105,112.5,-115,112.5,200,-215,-220,200,520,84+,Open,SBD,F,Raw
6,Melinda Lombosi,1978,Hungary,136.55,160,170,182.5,182.5,140,143,-145,143,175,-195,-195,175,500.5,84+,Open,SBD,F,Raw
7,Annina Luotonen,1986,Finland,131.7,155,165,172.5,172.5,100,105,107.5,107.5,202.5,210,-217.5,210,490,84+,Open,SBD,F,Raw
8,Ilrish Kensenhuis,1986,Netherlands,87.85,155,160,165,165,80,85,87.5,87.5,205,215,217.5,217.5,470,84+,Open,SBD,F,Raw
9,Mina Mae Cederberg,1979,Germany,99.55,160,167.5,-172.5,167.5,95,-100,100,100,170,180,187.5,187.5,455,84+,Open,SBD,F,Raw
10,Zuzana Bitterová,1984,Czechia,111,160,170,-177.5,170,80,-87.5,87.5,87.5,145,155,167.5,167.5,425,84+,Open,SBD,F,Raw
1,Kristina Lieonienko,2001,Ukraine,42.85,72.5,77.5,80,80,52.5,57.5,-61.5,57.5,90,97.5,102.5,102.5,240,43,Sub-Juniors,SBD,F,Raw
1,Ekaterina Ageeva,2000,Russia,46.95,95,102.5,105,105,57.5,-62.5,62.5,62.5,125,130,-132.5,130,297.5,47,Sub-Juniors,SBD,F,Raw
2,Klaudia Poszwa,2000,Poland,46.4,100,105,108,108,40,45,-50,45,127.5,136,-145,136,289,47,Sub-Juniors,SBD,F,Raw
3,Nadia Famulska,2003,Poland,46.9,-77.5,-77.5,77.5,77.5,42.5,-47.5,-47.5,42.5,100,105,110,110,230,47,Sub-Juniors,SBD,F,Raw
4,Viktoriia Voloshchenko,2000,Ukraine,46.6,70,-77.5,77.5,77.5,40,42.5,-45,42.5,92.5,100,-105,100,220,47,Sub-Juniors,SBD,F,Raw
1,Alina Tsikul,2001,Ukraine,51.65,117.5,122.5,127.5,127.5,47.5,50,52.5,52.5,115,-120,120,120,300,52,Sub-Juniors,SBD,F,Raw
2,Celine Hein,2000,Germany,51.25,97.5,102.5,107.5,107.5,50,52.5,55,55,120,127.5,132.5,132.5,295,52,Sub-Juniors,SBD,F,Raw
3,Nina Hinterhoelzl,2000,Austria,51.1,95,-100,100,100,57.5,60,-62.5,60,102.5,110,117.5,117.5,277.5,52,Sub-Juniors,SBD,F,Raw
4,Nadzeya Tsiareshka,2001,Belarus,51.2,92.5,97.5,-100,97.5,57.5,60,-62.5,60,120,-125,-125,120,277.5,52,Sub-Juniors,SBD,F,Raw
5,Jaime Lei Fuller,2003,UK,50.7,90,95,-100,95,52.5,57.5,60,60,102.5,110,-115,110,265,52,Sub-Juniors,SBD,F,Raw
6,Denisa Turková,2003,Czechia,51.05,85,-92.5,-92.5,85,42.5,-45,-45,42.5,100,107.5,-110,107.5,235,52,Sub-Juniors,SBD,F,Raw
7,Žaneta Valiulytė,2001,Lithuania,51.1,85,90,-95,90,37.5,40,42.5,42.5,95,-102.5,-102.5,95,227.5,52,Sub-Juniors,SBD,F,Raw
1,Fanny Lamminen,2002,Finland,56.7,155,160,-164,160,80,85,87.5,87.5,137.5,145,-153.5,145,392.5,57,Sub-Juniors,SBD,F,Raw
2,Daria Minenko,2000,Russia,56,120,-125,-127.5,120,57.5,62.5,-67.5,62.5,135,140,142.5,142.5,325,57,Sub-Juniors,SBD,F,Raw
3,Anastasiya Antonyuk,2002,Ukraine,56.8,115,120,-122.5,120,60,65,-67.5,65,130,137.5,140,140,325,57,Sub-Juniors,SBD,F,Raw
4,Ekaterina Nazarova,2000,Russia,56.5,-117.5,117.5,-125,117.5,67.5,72.5,-75,72.5,-110,110,132.5,132.5,322.5,57,Sub-Juniors,SBD,F,Raw
5,Karolína Adamová,2000,Czechia,54.65,95,97.5,102.5,102.5,70,75,77.5,77.5,125,135,-142.5,135,315,57,Sub-Juniors,SBD,F,Raw
6,Milka Kanerva,2002,Finland,55.25,95,100,-105,100,50,52.5,-55,52.5,95,100,-105,100,252.5,57,Sub-Juniors,SBD,F,Raw
1,Lucy Robinson #1,2002,UK,61.2,132.5,140,145.5,145.5,-57.5,57.5,65,65,155,163,170.5,170.5,381,63,Sub-Juniors,SBD,F,Raw
2,Drusilla Coan,2001,Italy,61.95,115,122.5,125,125,88,92.5,-96.5,92.5,145,152.5,-160,152.5,370,63,Sub-Juniors,SBD,F,Raw
3,Viktoriya Peneva,2000,Bulgaria,62.9,127.5,135,-137.5,135,70,75,77.5,77.5,140,147.5,155,155,367.5,63,Sub-Juniors,SBD,F,Raw
4,Lada Bessonova,2001,Russia,61.1,112.5,117.5,-120,117.5,72.5,77.5,80,80,120,-127.5,127.5,127.5,325,63,Sub-Juniors,SBD,F,Raw
5,Amelia Maycock,2000,UK,60.2,92.5,100,-105,100,57.5,60,62.5,62.5,145,155,160,160,322.5,63,Sub-Juniors,SBD,F,Raw
6,Angéla Viktoria Vass,2000,Hungary,60.35,105,115,-120,115,52.5,57.5,60,60,120,125,132.5,132.5,307.5,63,Sub-Juniors,SBD,F,Raw
7,Helena Uherková,2000,Czechia,61.25,100,105,110,110,50,55,-60,55,115,125,,125,290,63,Sub-Juniors,SBD,F,Raw
DQ,Kateryna Kupaieva,2000,Ukraine,62.65,120,125,127.5,127.5,62.5,67.5,70,70,-125,-125,-125,,,63,Sub-Juniors,SBD,F,Raw
DQ,Giulia Zandavali,2000,Italy,59.5,40,60,-100,60,65,-70,70,70,,,,,,63,Sub-Juniors,SBD,F,Raw
1,Ida Lis,2000,Poland,68.3,165,-170,-170,165,85,87.5,90,90,172.5,182.5,-190.5,182.5,437.5,72,Sub-Juniors,SBD,F,Raw
2,Nuša Železnik,2000,Slovenia,71.65,155,162.5,-167.5,162.5,80,85,87.5,87.5,165,172.5,177.5,177.5,427.5,72,Sub-Juniors,SBD,F,Raw
3,Lucie Daňková,2000,Czechia,69.65,-115,115,122.5,122.5,65,-67.5,-67.5,65,135,140,150,150,337.5,72,Sub-Juniors,SBD,F,Raw
4,Anna Rekachinskaia,2000,Russia,70.5,105,110,112.5,112.5,70,75,77.5,77.5,125,132.5,-140,132.5,322.5,72,Sub-Juniors,SBD,F,Raw
5,Corrina McConnell,2001,Ireland,70,95,102.5,110,110,57.5,62.5,65,65,115,122.5,-127.5,122.5,297.5,72,Sub-Juniors,SBD,F,Raw
1,Olga Galskaia,2001,Russia,75.2,127.5,132.5,-135,132.5,82.5,85,87.5,87.5,145,150,155,155,375,84,Sub-Juniors,SBD,F,Raw
2,Michaela Kanátová,2002,Czechia,80,137.5,145,-150,145,62.5,67.5,-72.5,67.5,145,155,-165,155,367.5,84,Sub-Juniors,SBD,F,Raw
3,Nikola Śpica,2001,Poland,76.55,135,140,-142.5,140,65,70,-72.5,70,142.5,147.5,150,150,360,84,Sub-Juniors,SBD,F,Raw
4,Kinga Gaal,2000,Hungary,81.7,122.5,130,132.5,132.5,60,-67.5,-67.5,60,130,140,147.5,147.5,340,84,Sub-Juniors,SBD,F,Raw
5,Klaudia Murza,2002,Poland,83.3,140,-150,-150,140,47.5,50,52.5,52.5,142.5,147.5,-150,147.5,340,84,Sub-Juniors,SBD,F,Raw
6,Sofie Sällinen,2000,Finland,75.4,-100,105,110,110,75,77.5,82.5,82.5,102.5,107.5,112.5,112.5,305,84,Sub-Juniors,SBD,F,Raw
1,Ieva Vinkšnaitė,2001,Lithuania,90.05,145,155,-165,155,100,105,110,110,147.5,157.5,162.5,162.5,427.5,84+,Sub-Juniors,SBD,F,Raw
2,Anna Vozmilova,2001,Russia,87.75,160,170,-175,170,80,85,-87.5,85,145,155,-167.5,155,410,84+,Sub-Juniors,SBD,F,Raw
3,Wiktoria Zalesińska,2000,Poland,91.1,-150,150,-160,150,62.5,-65,-65,62.5,135,145,150,150,362.5,84+,Sub-Juniors,SBD,F,Raw
4,Abi-Louise Lane,2002,UK,113.6,112.5,117.5,122.5,122.5,55,60,-62.5,60,152.5,160,-165,160,342.5,84+,Sub-Juniors,SBD,F,Raw
5,Andrea Víznerová,2001,Czechia,92.65,-120,120,127.5,127.5,37.5,40,42.5,42.5,120,125,130,130,300,84+,Sub-Juniors,SBD,F,Raw
6,Franciska Kovacs,2000,Hungary,86.85,-95,95,100,100,42.5,47.5,50,50,100,110,112.5,112.5,262.5,84+,Sub-Juniors,SBD,F,Raw
1,Tania Chevalier,1995,France,42.6,87.5,92.5,-95,92.5,42.5,45,-47.5,45,110,-115,115,115,252.5,43,Juniors,SBD,F,Raw
2,Dariia Brazhnyk,1997,Ukraine,42.75,82.5,87.5,90,90,52.5,-55,55,55,90,97.5,105,105,250,43,Juniors,SBD,F,Raw
1,Tetyana Shchavinska,1996,Ukraine,46.6,100,105,107.5,107.5,83.5,-86,86,86,135,-140,-140,135,328.5,47,Juniors,SBD,F,Raw
2,Paulina Szymanel,1995,Poland,45.75,95,100,-105,100,67.5,70,-72.5,70,127.5,132.5,137.5,137.5,307.5,47,Juniors,SBD,F,Raw
3,Mariia Zabelina,1997,Russia,46.25,95,100,105,105,50,55,57.5,57.5,127.5,135,137.5,137.5,300,47,Juniors,SBD,F,Raw
4,Zuzanna Kula,1999,Poland,46.05,97.5,102.5,-105,102.5,-67.5,-67.5,67.5,67.5,117.5,125,127.5,127.5,297.5,47,Juniors,SBD,F,Raw
1,Viktoria Druziaka,1998,Ukraine,51,120,125,-127.5,125,77.5,-82.5,-82.5,77.5,130,140,142.5,142.5,345,52,Juniors,SBD,F,Raw
2,Samira Karaeva,1996,Russia,51.3,117.5,125,130,130,70,77.5,-80,77.5,130,-140,-140,130,337.5,52,Juniors,SBD,F,Raw
3,Lea Kannowsky,1995,Germany,51.45,107.5,115,120,120,72.5,75,77.5,77.5,127.5,137.5,-145,137.5,335,52,Juniors,SBD,F,Raw
4,Margaryta Turenko,1995,Ukraine,51.45,117.5,-122.5,125,125,70,75,77.5,77.5,-127.5,-127.5,127.5,127.5,330,52,Juniors,SBD,F,Raw
5,Oda Jystad Jensen,1996,Denmark,50.3,95,100,105,105,75,80,-82.5,80,132.5,140,-150,140,325,52,Juniors,SBD,F,Raw
6,Julia Dru,1997,France,51.45,112.5,-117.5,-117.5,112.5,57.5,60,-62.5,60,147.5,-152.5,-152.5,147.5,320,52,Juniors,SBD,F,Raw
7,Tiarna Pearce,1996,UK,51.8,115,120,122.5,122.5,55,-57.5,-57.5,55,135,142.5,-150,142.5,320,52,Juniors,SBD,F,Raw
8,Natalia Artemova,1996,Russia,51.55,105,110,-112.5,110,62.5,65,-67.5,65,142.5,-147.5,-147.5,142.5,317.5,52,Juniors,SBD,F,Raw
9,Camilla Vik Nygård,1999,Norway,50.7,105,110,115,115,67.5,70,-72.5,70,115,-122.5,122.5,122.5,307.5,52,Juniors,SBD,F,Raw
10,Blanka Pilátová,1996,Czechia,50.7,95,-102.5,102.5,102.5,52.5,57.5,60,60,110,115,120,120,282.5,52,Juniors,SBD,F,Raw
11,Michaela Filová,1999,Czechia,51.95,100,-102.5,-102.5,100,47.5,50,52.5,52.5,125,-130,-132.5,125,277.5,52,Juniors,SBD,F,Raw
1,Krista Määttä,1995,Finland,56.3,127.5,132.5,-137.5,132.5,80,85,87.5,87.5,147.5,160,167.5,167.5,387.5,57,Juniors,SBD,F,Raw
2,Donna Berglund,1997,Sweden,56.4,127.5,132.5,137.5,137.5,103.5,108.5,113.5,113.5,127.5,135,-140,135,386,57,Juniors,SBD,F,Raw
3,Veronika Schulze,1997,Germany,56.1,135,140,142.5,142.5,72.5,77.5,80,80,152.5,157.5,162.5,162.5,385,57,Juniors,SBD,F,Raw
4,Madison Lepoittevin,1995,France,56.2,161,166,-168,166,77.5,80,-82.5,80,127.5,132.5,-135,132.5,378.5,57,Juniors,SBD,F,Raw
5,Elspeth McLeod,1995,UK,56.75,115,125,130,130,87.5,-92.5,-92.5,87.5,147.5,157.5,-165,157.5,375,57,Juniors,SBD,F,Raw
6,Catherine Smith,1995,UK,53.65,117.5,125,130,130,57.5,62.5,-65,62.5,162.5,177.5,-192.5,177.5,370,57,Juniors,SBD,F,Raw
7,Irina Atamanova,1998,Russia,56.55,125,135,-140,135,87.5,92.5,-95,92.5,135,142.5,-155,142.5,370,57,Juniors,SBD,F,Raw
8,Yuliya Chikalina,1998,Ukraine,55.85,105,112.5,-117.5,112.5,82.5,87.5,-90,87.5,152.5,-157.5,-157.5,152.5,352.5,57,Juniors,SBD,F,Raw
9,Marika Zandecka,1995,Poland,55.9,127.5,-135,-135,127.5,67.5,70,72.5,72.5,147.5,-155,-157.5,147.5,347.5,57,Juniors,SBD,F,Raw
10,Sabina Durok,1999,Poland,56.4,125,-132.5,-132.5,125,62.5,-67.5,-67.5,62.5,135,140,150,150,337.5,57,Juniors,SBD,F,Raw
11,Eva de Langen,1996,Netherlands,56.35,112.5,-117.5,117.5,117.5,57.5,60,-62.5,60,145,152.5,-157.5,152.5,330,57,Juniors,SBD,F,Raw
12,Katinka van Baalen,1996,Netherlands,56.5,105,110,-112.5,110,75,-80,-80,75,140,-147.5,-147.5,140,325,57,Juniors,SBD,F,Raw
13,Silvia Naldi,1995,Italy,56.15,122.5,127.5,-132.5,127.5,-65,65,-70,65,130,-140,-140,130,322.5,57,Juniors,SBD,F,Raw
14,Esther Gutiérrez Gutiérrez,1996,Spain,56.4,-120,120,-125,120,-57.5,57.5,60,60,140,-150,-150,140,320,57,Juniors,SBD,F,Raw
15,Maria Äimälä,1995,Finland,56.35,90,95,-97.5,95,50,55,-57.5,55,120,130,135,135,285,57,Juniors,SBD,F,Raw
1,Sofiya Rud,1997,Ukraine,61.75,135,140,145,145,85,90,-92.5,90,172.5,177.5,-183,177.5,412.5,63,Juniors,SBD,F,Raw
2,Ksenia Perevozova,1997,Russia,62.3,-160,160,-170,160,80,85,-87.5,85,160,165,-170,165,410,63,Juniors,SBD,F,Raw
3,Moa Wikner,1995,UK,61.7,135,-140,140,140,85,87.5,-90,87.5,165,177.5,180,180,407.5,63,Juniors,SBD,F,Raw
4,Sara Naldi,1998,Italy,60.9,140,145,150,150,75,77.5,80,80,167.5,-172.5,175,175,405,63,Juniors,SBD,F,Raw
5,Katrine Sundal Haune,1995,Norway,62.2,137.5,-142.5,-142.5,137.5,87.5,92.5,95,95,135,142.5,-147.5,142.5,375,63,Juniors,SBD,F,Raw
6,Sarah Collins Kaufmann,1996,Switzerland,62.5,-137.5,137.5,-142.5,137.5,67.5,70,-72.5,70,152.5,-157.5,157.5,157.5,365,63,Juniors,SBD,F,Raw
7,Arna Ösp Gunnarsdóttir,1995,Iceland,61.4,112.5,-117.5,-117.5,112.5,70,72.5,-75,72.5,-162.5,162.5,170,170,355,63,Juniors,SBD,F,Raw
8,Lene Wollesen,1995,Denmark,60.85,120,122.5,-127.5,122.5,85,90,-92.5,90,130,-140,-145,130,342.5,63,Juniors,SBD,F,Raw
9,Ave Tüür,1996,Estonia,61.7,115,-122.5,-125,115,75,77.5,80,80,137.5,147.5,-152.5,147.5,342.5,63,Juniors,SBD,F,Raw
10,Lenka Wolfová,1995,Czechia,62.3,130,-137.5,-137.5,130,55,60,-65,60,137.5,145,-155,145,335,63,Juniors,SBD,F,Raw
11,Tereza Herrmannová,1999,Czechia,62.8,130,-137.5,-137.5,130,60,62.5,-65,62.5,125,130,135,135,327.5,63,Juniors,SBD,F,Raw
12,Eglė Turakevičiūtė,1999,Lithuania,61.2,95,-105,-105,95,85,87.5,92.5,92.5,115,125,-132.5,125,312.5,63,Juniors,SBD,F,Raw
13,Gabrielė Butautaitė,1998,Lithuania,61.9,-115,115,-122.5,115,60,65,-70,65,120,-130,-140,120,300,63,Juniors,SBD,F,Raw
DQ,Marketta Harjunen,1995,Finland,62.1,130,-140,-140,130,-70,-75,-75,,-150,-160,,,,63,Juniors,SBD,F,Raw
1,Vilma Olsson,1999,Sweden,70.95,177.5,185,190,190,107.5,112.5,116,116,180,190,195,195,501,72,Juniors,SBD,F,Raw
2,Ida Rönn,1997,Sweden,71,170,177.5,-182.5,177.5,95,100,102.5,102.5,220,-228,-228,220,500,72,Juniors,SBD,F,Raw
3,Yulia Shevchenko,1995,Ukraine,70.4,145,150,-155,150,85,90,92.5,92.5,180,190,-197.5,190,432.5,72,Juniors,SBD,F,Raw
4,Malene Joensen,1995,Norway,69.65,155,165,-172.5,165,82.5,87.5,-90,87.5,150,160,-165,160,412.5,72,Juniors,SBD,F,Raw
5,Isabell Adolfsen,1999,Norway,69,145,-150,-150,145,-80,80,85,85,165,-177.5,177.5,177.5,407.5,72,Juniors,SBD,F,Raw
6,Klára Zmeškalová,1997,Czechia,69.4,137.5,145,150,150,70,72.5,-75,72.5,160,172.5,182.5,182.5,405,72,Juniors,SBD,F,Raw
7,Jacqueline Klaver,1996,Netherlands,71,145,152.5,160,160,60,62.5,65,65,162.5,172.5,-182.5,172.5,397.5,72,Juniors,SBD,F,Raw
8,Tuulia Lohivuo,1997,Finland,67.15,140,-145,-145,140,87.5,-90,90,90,155,162.5,-165,162.5,392.5,72,Juniors,SBD,F,Raw
9,Abigail McLean,1998,UK,71.95,137.5,-142.5,142.5,142.5,70,-72.5,72.5,72.5,170,177.5,-185,177.5,392.5,72,Juniors,SBD,F,Raw
10,Margarita Zhogina,1997,Russia,68,132.5,140,145,145,70,75,-77.5,75,162.5,-172.5,-172.5,162.5,382.5,72,Juniors,SBD,F,Raw
11,Helena Veelmaa,1995,Estonia,68.4,135,140,142.5,142.5,75,80,82.5,82.5,145,150,-155,150,375,72,Juniors,SBD,F,Raw
12,Carrie Carmichael,1997,Ireland,70.6,130,-140,140,140,55,60,-65,60,155,165,172.5,172.5,372.5,72,Juniors,SBD,F,Raw
13,Kateřina Prípadová,1999,Czechia,67.6,105,112.5,-120,112.5,62.5,65,-70,65,125,-135,-140,125,302.5,72,Juniors,SBD,F,Raw
14,Aistė Kanapeckaitė,1996,Lithuania,63.75,100,105,-110,105,55,60,-65,60,135,-150,-150,135,300,72,Juniors,SBD,F,Raw
1,Chrystal Williams,1995,UK,82.5,170,177.5,-182.5,177.5,100,105,-107.5,105,200,-207.5,212.5,212.5,495,84,Juniors,SBD,F,Raw
2,Amelia Mauritzon,1995,Sweden,74.35,182.5,190,197.5,197.5,-92.5,92.5,-100,92.5,190,197.5,202.5,202.5,492.5,84,Juniors,SBD,F,Raw
3,Isabelle Feteris,1995,Netherlands,83.2,147.5,157.5,162.5,162.5,100,105,107.5,107.5,185,192.5,197.5,197.5,467.5,84,Juniors,SBD,F,Raw
4,Henna Kaasalainen,1999,Finland,83.7,165,-170,170,170,82.5,85,87.5,87.5,185,192.5,195,195,452.5,84,Juniors,SBD,F,Raw
5,Karoline Tanche-Larsen,1995,Norway,83.05,160,167.5,-170,167.5,92.5,100,-102.5,100,160,170,-177.5,170,437.5,84,Juniors,SBD,F,Raw
6,Jessika Lowe,1996,Sweden,74.45,142.5,147.5,152.5,152.5,92.5,97.5,-100,97.5,180,-192.5,-195,180,430,84,Juniors,SBD,F,Raw
7,Sandra Persson,1995,Norway,73.7,140,150,155,155,72.5,77.5,-80,77.5,165,175,185,185,417.5,84,Juniors,SBD,F,Raw
8,Aoife O'Leary,1996,Ireland,81.9,135,142.5,145,145,52.5,-57.5,57.5,57.5,165,175,-180,175,377.5,84,Juniors,SBD,F,Raw
9,Amaliia Kazak,1995,Russia,83.2,130,-135,-135,130,100,102.5,105,105,130,-142.5,142.5,142.5,377.5,84,Juniors,SBD,F,Raw
DQ,Patrycja Kulczycka,1996,Poland,81.85,-110,-110,-110,,50,57.5,-62.5,57.5,135,145,-150,145,,84,Juniors,SBD,F,Raw
1,Charlie Chester,1996,UK,109.4,172.5,185,-190,185,90,95,97.5,97.5,170,182.5,187.5,187.5,470,84+,Juniors,SBD,F,Raw
2,Mirka Valo,1997,Finland,96.25,150,162.5,167.5,167.5,85,87.5,90,90,185,202.5,-207.5,202.5,460,84+,Juniors,SBD,F,Raw
3,Yuliya Marinenko,1995,Ukraine,87.15,145,155,162.5,162.5,67.5,75,80,80,165,172.5,180,180,422.5,84+,Juniors,SBD,F,Raw
4,Paulina Lechowicz,1996,Poland,84.8,135,140,145,145,92.5,97.5,-100,97.5,160,170,177.5,177.5,420,84+,Juniors,SBD,F,Raw
5,Sarah Gardiner,1997,Ireland,99,145,152.5,157.5,157.5,85,90,92.5,92.5,160,170,-172.5,170,420,84+,Juniors,SBD,F,Raw
6,Oksana Semenukha,1995,Russia,85,140,145,-147.5,145,90,92.5,95,95,140,147.5,-152.5,147.5,387.5,84+,Juniors,SBD,F,Raw
7,Anna Niemczyk,1996,Poland,84.15,135,142.5,147.5,147.5,55,60,-65,60,155,162.5,-167.5,162.5,370,84+,Juniors,SBD,F,Raw
8,Saara Puusaari,1997,Finland,92,140,150,-160,150,60,65,70,70,130,140,142.5,142.5,362.5,84+,Juniors,SBD,F,Raw
